START MAUDE AND TOOL ... 
(set include BOOL off .)

(
fmod BAKERY-PROPS is
----  pr BOOL-OPS .
 pr TRUTH-VALUE .
 op not_ : Bool -> Bool .
 ops _and_ _or_ : Bool Bool -> Bool .
 var B : Bool .
 eq not true = false .
 eq not false = true .
 eq true and B = B .
 eq false and B = false .
 eq true or B = true .
 eq false or B = B . 
 sorts Nat .

 op 0 : -> Nat [ctor] .
 op s : Nat -> Nat [ctor] .
 sorts ProcIdle ProcWait Proc ProcIdleSet ProcWaitSet ProcSet .
 subsorts ProcIdle < ProcIdleSet .
 subsorts ProcWait < ProcWaitSet .
 subsorts ProcIdle ProcWait < Proc < ProcSet .
 subsorts ProcIdleSet < ProcWaitSet < ProcSet .
 op idle : -> ProcIdle [ctor] .
 op wait : Nat -> ProcWait [ctor] .
 op crit : Nat -> Proc [ctor] .
 op none : -> ProcIdleSet [ctor] .
 op __ : ProcIdleSet ProcIdleSet -> ProcIdleSet [ctor assoc comm id: none] .
 op __ : ProcWaitSet ProcWaitSet -> ProcWaitSet [ctor assoc comm id: none] .
 op __ : ProcSet ProcSet -> ProcSet [ctor assoc comm id: none] .

 sort State .
 op _:_`[_`] : Nat Nat ProcSet -> State [ctor] .

 ops init mutex good-state unique-tickets bounded-tickets : State -> [Bool] .

 var Is : ProcIdleSet .     var Ws : ProcWaitSet .     vars Ps Ps' : ProcSet .
 vars N M M' N' : Nat .     var P : Proc .  

 eq init(0 : 0 [Is]) = true .

 eq mutex(N : M [Ws]) = true .
 eq mutex(N : M [crit(M') Ws]) = true .
 eq mutex(N : M [crit(M') crit(N') Ps]) = false .

 eq good-state(N : M [Ws]) = true .
 eq good-state(N : M [crit(M) Ws]) = true .
 eq good-state(N : M [crit(M') crit(N') Ps]) = false .

eq bounded-tickets(N : M [Ps]) = sub-bag(tickets(Ps),tickets-below(N)) .
 eq unique-tickets(N : M [Ps]) = set?(tickets(Ps)) .

 sort NatBag .
---- subsort Nat < NatBag .
 op mtbag : -> NatBag [ctor] .
 op `{_`} : Nat -> NatBag [ctor] .
 op __ : NatBag NatBag -> NatBag [ctor assoc comm id: mtbag] .

 op tickets-below : Nat -> NatBag .
 eq tickets-below(0) = mtbag .
 eq tickets-below(s(N)) = {N} tickets-below(N) .

 op tickets : ProcSet -> NatBag .
 eq tickets(Is) = mtbag .
 eq tickets(idle Ps) = tickets(Ps) .
 eq tickets(wait(N) Ps) = {N} tickets(Ps) .
 eq tickets(crit(N) Ps) = {N} tickets(Ps) .

 vars NB NB' NB'' : NatBag .

 op sub-bag : NatBag NatBag -> Bool .
eq sub-bag(NB,NB NB') = true .

--- Equality enrichments
 op = : Nat Nat -> Bool . ----[comm] .
  eq =(N,N) = true .            --- Added for confluence
  eq =(0,0) = true .
  eq =(s(N),0) = false .
  eq =(0,s(N)) = false .
  eq =(s(N),s(N')) = =(N,N') .
---a ceq [eqenrich] : N = N' if =(N,N') [nonexec] .

--- Innequality
 op <= : Nat Nat -> Bool .
 eq <=(0,N) = true .
 eq <=(N,N) = true .
 eq <=(s(N),s(M)) = <=(N,M) .
 eq <=(s(N),0) = false .

--- Bag membership
  op in? : Nat NatBag -> Bool .
  eq in?(N,mtbag) = false .
  eq in?(N,{M} NB) = =(N,M) or in?(N,NB) .

--- Some bags are sets 
  op set? : NatBag -> Bool .
  eq set?(mtbag) = true .
  eq set?({N} NB) = not in?(N,NB) and set?(NB) .
----  ceq set?({N} NB) = true if in?(N,NB) = false /\ set?(NB) = true .
  eq set?({N} {N} NB) = false .     --- Added for confluence
endfm)


==============================
START Maude C;U;B false false
SUCESSFULLY 38 Maude seconds 4

(VAR B Is M' M N' N NB' NB Ps Ws X)
(THEORY
 (AC ---osb-NatBag-csb-osb-NatBag-csb)
 (AC ---osb-ProcSet-csb-osb-ProcSet-csb)
)

(RULES
 ---osb-NatBag-csb-osb-NatBag-csb(mtbag, X)-> X
 ---osb-ProcSet-csb-osb-ProcSet-csb(none, X)-> X
 -and--osb-Bool-csb-osb-Bool-csb(false, B)-> false
 -and--osb-Bool-csb-osb-Bool-csb(true, B)-> B
 -or--osb-Bool-csb-osb-Bool-csb(false, B)-> B
 -or--osb-Bool-csb-osb-Bool-csb(true, B)-> true
 <=-osb-Nat-csb-osb-Nat-csb(0, N)-> true
 <=-osb-Nat-csb-osb-Nat-csb(N, N)-> true
 <=-osb-Nat-csb-osb-Nat-csb(s-osb-Nat-csb(N), 0)-> false
 <=-osb-Nat-csb-osb-Nat-csb(s-osb-Nat-csb(N), s-osb-Nat-csb(M))-> <=-osb-Nat-csb-osb-Nat-csb(N, M)
 =-osb-Nat-csb-osb-Nat-csb(0, 0)-> true
 =-osb-Nat-csb-osb-Nat-csb(0, s-osb-Nat-csb(N))-> false
 =-osb-Nat-csb-osb-Nat-csb(N, N)-> true
 =-osb-Nat-csb-osb-Nat-csb(s-osb-Nat-csb(N), 0)-> false
 =-osb-Nat-csb-osb-Nat-csb(s-osb-Nat-csb(N), s-osb-Nat-csb(N'))-> =-osb-Nat-csb-osb-Nat-csb(N, N')
 bounded-tickets-osb-State-csb(-:-osb---csb-osb-Nat-csb-osb-Nat-csb-osb-ProcSet-csb(N, M, Ps))-> sub-bag-osb-NatBag-csb-osb-NatBag-csb(tickets-osb-ProcSet-csb(Ps), tickets-below-osb-Nat-csb(N))
 good-state-osb-State-csb(-:-osb---csb-osb-Nat-csb-osb-Nat-csb-osb-ProcSet-csb(N, M, Ws))-> true
 good-state-osb-State-csb(-:-osb---csb-osb-Nat-csb-osb-Nat-csb-osb-ProcSet-csb(N, M, ---osb-ProcSet-csb-osb-ProcSet-csb(crit-osb-Nat-csb(M'), ---osb-ProcSet-csb-osb-ProcSet-csb(crit-osb-Nat-csb(N'), Ps))))-> false
 good-state-osb-State-csb(-:-osb---csb-osb-Nat-csb-osb-Nat-csb-osb-ProcSet-csb(N, M, ---osb-ProcSet-csb-osb-ProcSet-csb(crit-osb-Nat-csb(M), Ws)))-> true
 good-state-osb-State-csb(-:-osb---csb-osb-Nat-csb-osb-Nat-csb-osb-ProcSet-csb(N, M, ---osb-ProcSet-csb-osb-ProcSet-csb(crit-osb-Nat-csb(N'), crit-osb-Nat-csb(M'))))-> false
 good-state-osb-State-csb(-:-osb---csb-osb-Nat-csb-osb-Nat-csb-osb-ProcSet-csb(N, M, crit-osb-Nat-csb(M)))-> true
 in?-osb-Nat-csb-osb-NatBag-csb(N, mtbag)-> false
 in?-osb-Nat-csb-osb-NatBag-csb(N, ---osb-NatBag-csb-osb-NatBag-csb(ocb---ccb-osb-Nat-csb(M), NB))-> -or--osb-Bool-csb-osb-Bool-csb(=-osb-Nat-csb-osb-Nat-csb(N, M), in?-osb-Nat-csb-osb-NatBag-csb(N, NB))
 in?-osb-Nat-csb-osb-NatBag-csb(N, ocb---ccb-osb-Nat-csb(M))-> -or--osb-Bool-csb-osb-Bool-csb(=-osb-Nat-csb-osb-Nat-csb(N, M), in?-osb-Nat-csb-osb-NatBag-csb(N, mtbag))
 init-osb-State-csb(-:-osb---csb-osb-Nat-csb-osb-Nat-csb-osb-ProcSet-csb(0, 0, Is))-> true
 mutex-osb-State-csb(-:-osb---csb-osb-Nat-csb-osb-Nat-csb-osb-ProcSet-csb(N, M, Ws))-> true
 mutex-osb-State-csb(-:-osb---csb-osb-Nat-csb-osb-Nat-csb-osb-ProcSet-csb(N, M, ---osb-ProcSet-csb-osb-ProcSet-csb(crit-osb-Nat-csb(M'), Ws)))-> true
 mutex-osb-State-csb(-:-osb---csb-osb-Nat-csb-osb-Nat-csb-osb-ProcSet-csb(N, M, ---osb-ProcSet-csb-osb-ProcSet-csb(crit-osb-Nat-csb(M'), ---osb-ProcSet-csb-osb-ProcSet-csb(crit-osb-Nat-csb(N'), Ps))))-> false
 mutex-osb-State-csb(-:-osb---csb-osb-Nat-csb-osb-Nat-csb-osb-ProcSet-csb(N, M, ---osb-ProcSet-csb-osb-ProcSet-csb(crit-osb-Nat-csb(N'), crit-osb-Nat-csb(M'))))-> false
 mutex-osb-State-csb(-:-osb---csb-osb-Nat-csb-osb-Nat-csb-osb-ProcSet-csb(N, M, crit-osb-Nat-csb(M')))-> true
 not--osb-Bool-csb(false)-> true
 not--osb-Bool-csb(true)-> false
 set?-osb-NatBag-csb(mtbag)-> true
 set?-osb-NatBag-csb(---osb-NatBag-csb-osb-NatBag-csb(ocb---ccb-osb-Nat-csb(N), NB))-> -and--osb-Bool-csb-osb-Bool-csb(not--osb-Bool-csb(in?-osb-Nat-csb-osb-NatBag-csb(N, NB)), set?-osb-NatBag-csb(NB))
 set?-osb-NatBag-csb(---osb-NatBag-csb-osb-NatBag-csb(ocb---ccb-osb-Nat-csb(N), ---osb-NatBag-csb-osb-NatBag-csb(ocb---ccb-osb-Nat-csb(N), NB)))-> false
 set?-osb-NatBag-csb(---osb-NatBag-csb-osb-NatBag-csb(ocb---ccb-osb-Nat-csb(N), ocb---ccb-osb-Nat-csb(N)))-> false
 set?-osb-NatBag-csb(ocb---ccb-osb-Nat-csb(N))-> -and--osb-Bool-csb-osb-Bool-csb(not--osb-Bool-csb(in?-osb-Nat-csb-osb-NatBag-csb(N, mtbag)), set?-osb-NatBag-csb(mtbag))
 sub-bag-osb-NatBag-csb-osb-NatBag-csb(NB, NB)-> true
 sub-bag-osb-NatBag-csb-osb-NatBag-csb(NB, ---osb-NatBag-csb-osb-NatBag-csb(NB, NB'))-> true
 sub-bag-osb-NatBag-csb-osb-NatBag-csb(mtbag, NB')-> true
 tickets-below-osb-Nat-csb(0)-> mtbag
 tickets-below-osb-Nat-csb(s-osb-Nat-csb(N))-> ---osb-NatBag-csb-osb-NatBag-csb(ocb---ccb-osb-Nat-csb(N), tickets-below-osb-Nat-csb(N))
 tickets-osb-ProcSet-csb(Is)-> mtbag
 tickets-osb-ProcSet-csb(idle)-> tickets-osb-ProcSet-csb(none)
 tickets-osb-ProcSet-csb(---osb-ProcSet-csb-osb-ProcSet-csb(idle, Ps))-> tickets-osb-ProcSet-csb(Ps)
 tickets-osb-ProcSet-csb(---osb-ProcSet-csb-osb-ProcSet-csb(crit-osb-Nat-csb(N), Ps))-> ---osb-NatBag-csb-osb-NatBag-csb(ocb---ccb-osb-Nat-csb(N), tickets-osb-ProcSet-csb(Ps))
 tickets-osb-ProcSet-csb(---osb-ProcSet-csb-osb-ProcSet-csb(wait-osb-Nat-csb(N), Ps))-> ---osb-NatBag-csb-osb-NatBag-csb(ocb---ccb-osb-Nat-csb(N), tickets-osb-ProcSet-csb(Ps))
 tickets-osb-ProcSet-csb(crit-osb-Nat-csb(N))-> ---osb-NatBag-csb-osb-NatBag-csb(ocb---ccb-osb-Nat-csb(N), tickets-osb-ProcSet-csb(none))
 tickets-osb-ProcSet-csb(wait-osb-Nat-csb(N))-> ---osb-NatBag-csb-osb-NatBag-csb(ocb---ccb-osb-Nat-csb(N), tickets-osb-ProcSet-csb(none))
 unique-tickets-osb-State-csb(-:-osb---csb-osb-Nat-csb-osb-Nat-csb-osb-ProcSet-csb(N, M, Ps))-> set?-osb-NatBag-csb(tickets-osb-ProcSet-csb(Ps))
)

==============================
START AProVE
SUCESSFULLY AProVE seconds: 640

Term Rewriting System R:

   [X, B, N, M, N', Ps, Ws, M', NB, Is, NB']
   AC [---osb-NatBag-csb-osb-NatBag-csb, ---osb-ProcSet-csb-osb-ProcSet-csb]
   ---osb-NatBag-csb-osb-NatBag-csb(mtbag, X) -> X
   ---osb-ProcSet-csb-osb-ProcSet-csb(none, X) -> X
   -and--osb-Bool-csb-osb-Bool-csb(false, B) -> false
   -and--osb-Bool-csb-osb-Bool-csb(true, B) -> B
   -or--osb-Bool-csb-osb-Bool-csb(false, B) -> B
   -or--osb-Bool-csb-osb-Bool-csb(true, B) -> true
   <=-osb-Nat-csb-osb-Nat-csb(0, N) -> true
   <=-osb-Nat-csb-osb-Nat-csb(N, N) -> true
   <=-osb-Nat-csb-osb-Nat-csb(s-osb-Nat-csb(N), 0) -> false
   <=-osb-Nat-csb-osb-Nat-csb(s-osb-Nat-csb(N), s-osb-Nat-csb(M)) -> <=-osb-Nat-csb-osb-Nat-csb(N, M)
   =-osb-Nat-csb-osb-Nat-csb(0, 0) -> true
   =-osb-Nat-csb-osb-Nat-csb(0, s-osb-Nat-csb(N)) -> false
   =-osb-Nat-csb-osb-Nat-csb(N, N) -> true
   =-osb-Nat-csb-osb-Nat-csb(s-osb-Nat-csb(N), 0) -> false
   =-osb-Nat-csb-osb-Nat-csb(s-osb-Nat-csb(N), s-osb-Nat-csb(N')) -> =-osb-Nat-csb-osb-Nat-csb(N, N')
   bounded-tickets-osb-State-csb(-:-osb---csb-osb-Nat-csb-osb-Nat-csb-osb-ProcSet-csb(N, M, Ps)) -> sub-bag-osb-NatBag-csb-osb-NatBag-csb(tickets-osb-ProcSet-csb(Ps), tickets-below-osb-Nat-csb(N))
   good-state-osb-State-csb(-:-osb---csb-osb-Nat-csb-osb-Nat-csb-osb-ProcSet-csb(N, M, Ws)) -> true
   good-state-osb-State-csb(-:-osb---csb-osb-Nat-csb-osb-Nat-csb-osb-ProcSet-csb(N, M, ---osb-ProcSet-csb-osb-ProcSet-csb(crit-osb-Nat-csb(M'), ---osb-ProcSet-csb-osb-ProcSet-csb(crit-osb-Nat-csb(N'), Ps)))) -> false
   good-state-osb-State-csb(-:-osb---csb-osb-Nat-csb-osb-Nat-csb-osb-ProcSet-csb(N, M, ---osb-ProcSet-csb-osb-ProcSet-csb(crit-osb-Nat-csb(M), Ws))) -> true
   good-state-osb-State-csb(-:-osb---csb-osb-Nat-csb-osb-Nat-csb-osb-ProcSet-csb(N, M, ---osb-ProcSet-csb-osb-ProcSet-csb(crit-osb-Nat-csb(N'), crit-osb-Nat-csb(M')))) -> false
   good-state-osb-State-csb(-:-osb---csb-osb-Nat-csb-osb-Nat-csb-osb-ProcSet-csb(N, M, crit-osb-Nat-csb(M))) -> true
   in?-osb-Nat-csb-osb-NatBag-csb(N, mtbag) -> false
   in?-osb-Nat-csb-osb-NatBag-csb(N, ---osb-NatBag-csb-osb-NatBag-csb(ocb---ccb-osb-Nat-csb(M), NB)) -> -or--osb-Bool-csb-osb-Bool-csb(=-osb-Nat-csb-osb-Nat-csb(N, M), in?-osb-Nat-csb-osb-NatBag-csb(N, NB))
   in?-osb-Nat-csb-osb-NatBag-csb(N, ocb---ccb-osb-Nat-csb(M)) -> -or--osb-Bool-csb-osb-Bool-csb(=-osb-Nat-csb-osb-Nat-csb(N, M), in?-osb-Nat-csb-osb-NatBag-csb(N, mtbag))
   init-osb-State-csb(-:-osb---csb-osb-Nat-csb-osb-Nat-csb-osb-ProcSet-csb(0, 0, Is)) -> true
   mutex-osb-State-csb(-:-osb---csb-osb-Nat-csb-osb-Nat-csb-osb-ProcSet-csb(N, M, Ws)) -> true
   mutex-osb-State-csb(-:-osb---csb-osb-Nat-csb-osb-Nat-csb-osb-ProcSet-csb(N, M, ---osb-ProcSet-csb-osb-ProcSet-csb(crit-osb-Nat-csb(M'), Ws))) -> true
   mutex-osb-State-csb(-:-osb---csb-osb-Nat-csb-osb-Nat-csb-osb-ProcSet-csb(N, M, ---osb-ProcSet-csb-osb-ProcSet-csb(crit-osb-Nat-csb(M'), ---osb-ProcSet-csb-osb-ProcSet-csb(crit-osb-Nat-csb(N'), Ps)))) -> false
   mutex-osb-State-csb(-:-osb---csb-osb-Nat-csb-osb-Nat-csb-osb-ProcSet-csb(N, M, ---osb-ProcSet-csb-osb-ProcSet-csb(crit-osb-Nat-csb(N'), crit-osb-Nat-csb(M')))) -> false
   mutex-osb-State-csb(-:-osb---csb-osb-Nat-csb-osb-Nat-csb-osb-ProcSet-csb(N, M, crit-osb-Nat-csb(M'))) -> true
   not--osb-Bool-csb(false) -> true
   not--osb-Bool-csb(true) -> false
   set?-osb-NatBag-csb(mtbag) -> true
   set?-osb-NatBag-csb(---osb-NatBag-csb-osb-NatBag-csb(ocb---ccb-osb-Nat-csb(N), NB)) -> -and--osb-Bool-csb-osb-Bool-csb(not--osb-Bool-csb(in?-osb-Nat-csb-osb-NatBag-csb(N, NB)), set?-osb-NatBag-csb(NB))
   set?-osb-NatBag-csb(---osb-NatBag-csb-osb-NatBag-csb(ocb---ccb-osb-Nat-csb(N), ---osb-NatBag-csb-osb-NatBag-csb(ocb---ccb-osb-Nat-csb(N), NB))) -> false
   set?-osb-NatBag-csb(---osb-NatBag-csb-osb-NatBag-csb(ocb---ccb-osb-Nat-csb(N), ocb---ccb-osb-Nat-csb(N))) -> false
   set?-osb-NatBag-csb(ocb---ccb-osb-Nat-csb(N)) -> -and--osb-Bool-csb-osb-Bool-csb(not--osb-Bool-csb(in?-osb-Nat-csb-osb-NatBag-csb(N, mtbag)), set?-osb-NatBag-csb(mtbag))
   sub-bag-osb-NatBag-csb-osb-NatBag-csb(NB, NB) -> true
   sub-bag-osb-NatBag-csb-osb-NatBag-csb(NB, ---osb-NatBag-csb-osb-NatBag-csb(NB, NB')) -> true
   sub-bag-osb-NatBag-csb-osb-NatBag-csb(mtbag, NB') -> true
   tickets-below-osb-Nat-csb(0) -> mtbag
   tickets-below-osb-Nat-csb(s-osb-Nat-csb(N)) -> ---osb-NatBag-csb-osb-NatBag-csb(ocb---ccb-osb-Nat-csb(N), tickets-below-osb-Nat-csb(N))
   tickets-osb-ProcSet-csb(Is) -> mtbag
   tickets-osb-ProcSet-csb(idle) -> tickets-osb-ProcSet-csb(none)
   tickets-osb-ProcSet-csb(---osb-ProcSet-csb-osb-ProcSet-csb(idle, Ps)) -> tickets-osb-ProcSet-csb(Ps)
   tickets-osb-ProcSet-csb(---osb-ProcSet-csb-osb-ProcSet-csb(crit-osb-Nat-csb(N), Ps)) -> ---osb-NatBag-csb-osb-NatBag-csb(ocb---ccb-osb-Nat-csb(N), tickets-osb-ProcSet-csb(Ps))
   tickets-osb-ProcSet-csb(---osb-ProcSet-csb-osb-ProcSet-csb(wait-osb-Nat-csb(N), Ps)) -> ---osb-NatBag-csb-osb-NatBag-csb(ocb---ccb-osb-Nat-csb(N), tickets-osb-ProcSet-csb(Ps))
   tickets-osb-ProcSet-csb(crit-osb-Nat-csb(N)) -> ---osb-NatBag-csb-osb-NatBag-csb(ocb---ccb-osb-Nat-csb(N), tickets-osb-ProcSet-csb(none))
   tickets-osb-ProcSet-csb(wait-osb-Nat-csb(N)) -> ---osb-NatBag-csb-osb-NatBag-csb(ocb---ccb-osb-Nat-csb(N), tickets-osb-ProcSet-csb(none))
   unique-tickets-osb-State-csb(-:-osb---csb-osb-Nat-csb-osb-Nat-csb-osb-ProcSet-csb(N, M, Ps)) -> set?-osb-NatBag-csb(tickets-osb-ProcSet-csb(Ps))

Termination of R to be shown.





   R     ->Dependency Pair Analysis



R contains the following Dependency Pairs: 


   TICKETS-OSB-PROCSET-CSB(wait-osb-Nat-csb(N)) -> ---osb-NatBag-csb-osb-NatBag-csb(ocb---ccb-osb-Nat-csb(N), tickets-osb-ProcSet-csb(none))
   TICKETS-OSB-PROCSET-CSB(wait-osb-Nat-csb(N)) -> TICKETS-OSB-PROCSET-CSB(none)
   TICKETS-OSB-PROCSET-CSB(crit-osb-Nat-csb(N)) -> ---osb-NatBag-csb-osb-NatBag-csb(ocb---ccb-osb-Nat-csb(N), tickets-osb-ProcSet-csb(none))
   TICKETS-OSB-PROCSET-CSB(crit-osb-Nat-csb(N)) -> TICKETS-OSB-PROCSET-CSB(none)
   TICKETS-OSB-PROCSET-CSB(---osb-ProcSet-csb-osb-ProcSet-csb(idle, Ps)) -> TICKETS-OSB-PROCSET-CSB(Ps)
   TICKETS-OSB-PROCSET-CSB(---osb-ProcSet-csb-osb-ProcSet-csb(wait-osb-Nat-csb(N), Ps)) -> ---osb-NatBag-csb-osb-NatBag-csb(ocb---ccb-osb-Nat-csb(N), tickets-osb-ProcSet-csb(Ps))
   TICKETS-OSB-PROCSET-CSB(---osb-ProcSet-csb-osb-ProcSet-csb(wait-osb-Nat-csb(N), Ps)) -> TICKETS-OSB-PROCSET-CSB(Ps)
   TICKETS-OSB-PROCSET-CSB(idle) -> TICKETS-OSB-PROCSET-CSB(none)
   TICKETS-OSB-PROCSET-CSB(---osb-ProcSet-csb-osb-ProcSet-csb(crit-osb-Nat-csb(N), Ps)) -> ---osb-NatBag-csb-osb-NatBag-csb(ocb---ccb-osb-Nat-csb(N), tickets-osb-ProcSet-csb(Ps))
   TICKETS-OSB-PROCSET-CSB(---osb-ProcSet-csb-osb-ProcSet-csb(crit-osb-Nat-csb(N), Ps)) -> TICKETS-OSB-PROCSET-CSB(Ps)
   =-OSB-NAT-CSB-OSB-NAT-CSB(s-osb-Nat-csb(N), s-osb-Nat-csb(N')) -> =-OSB-NAT-CSB-OSB-NAT-CSB(N, N')
   BOUNDED-TICKETS-OSB-STATE-CSB(-:-osb---csb-osb-Nat-csb-osb-Nat-csb-osb-ProcSet-csb(N, M, Ps)) -> SUB-BAG-OSB-NATBAG-CSB-OSB-NATBAG-CSB(tickets-osb-ProcSet-csb(Ps), tickets-below-osb-Nat-csb(N))
   BOUNDED-TICKETS-OSB-STATE-CSB(-:-osb---csb-osb-Nat-csb-osb-Nat-csb-osb-ProcSet-csb(N, M, Ps)) -> TICKETS-OSB-PROCSET-CSB(Ps)
   BOUNDED-TICKETS-OSB-STATE-CSB(-:-osb---csb-osb-Nat-csb-osb-Nat-csb-osb-ProcSet-csb(N, M, Ps)) -> TICKETS-BELOW-OSB-NAT-CSB(N)
   TICKETS-BELOW-OSB-NAT-CSB(s-osb-Nat-csb(N)) -> ---osb-NatBag-csb-osb-NatBag-csb(ocb---ccb-osb-Nat-csb(N), tickets-below-osb-Nat-csb(N))
   TICKETS-BELOW-OSB-NAT-CSB(s-osb-Nat-csb(N)) -> TICKETS-BELOW-OSB-NAT-CSB(N)
   IN?-OSB-NAT-CSB-OSB-NATBAG-CSB(N, ---osb-NatBag-csb-osb-NatBag-csb(ocb---ccb-osb-Nat-csb(M), NB)) -> -OR--OSB-BOOL-CSB-OSB-BOOL-CSB(=-osb-Nat-csb-osb-Nat-csb(N, M), in?-osb-Nat-csb-osb-NatBag-csb(N, NB))
   IN?-OSB-NAT-CSB-OSB-NATBAG-CSB(N, ---osb-NatBag-csb-osb-NatBag-csb(ocb---ccb-osb-Nat-csb(M), NB)) -> =-OSB-NAT-CSB-OSB-NAT-CSB(N, M)
   IN?-OSB-NAT-CSB-OSB-NATBAG-CSB(N, ---osb-NatBag-csb-osb-NatBag-csb(ocb---ccb-osb-Nat-csb(M), NB)) -> IN?-OSB-NAT-CSB-OSB-NATBAG-CSB(N, NB)
   IN?-OSB-NAT-CSB-OSB-NATBAG-CSB(N, ocb---ccb-osb-Nat-csb(M)) -> -OR--OSB-BOOL-CSB-OSB-BOOL-CSB(=-osb-Nat-csb-osb-Nat-csb(N, M), in?-osb-Nat-csb-osb-NatBag-csb(N, mtbag))
   IN?-OSB-NAT-CSB-OSB-NATBAG-CSB(N, ocb---ccb-osb-Nat-csb(M)) -> =-OSB-NAT-CSB-OSB-NAT-CSB(N, M)
   IN?-OSB-NAT-CSB-OSB-NATBAG-CSB(N, ocb---ccb-osb-Nat-csb(M)) -> IN?-OSB-NAT-CSB-OSB-NATBAG-CSB(N, mtbag)
   <=-OSB-NAT-CSB-OSB-NAT-CSB(s-osb-Nat-csb(N), s-osb-Nat-csb(M)) -> <=-OSB-NAT-CSB-OSB-NAT-CSB(N, M)
   SET?-OSB-NATBAG-CSB(---osb-NatBag-csb-osb-NatBag-csb(ocb---ccb-osb-Nat-csb(N), NB)) -> -AND--OSB-BOOL-CSB-OSB-BOOL-CSB(not--osb-Bool-csb(in?-osb-Nat-csb-osb-NatBag-csb(N, NB)), set?-osb-NatBag-csb(NB))
   SET?-OSB-NATBAG-CSB(---osb-NatBag-csb-osb-NatBag-csb(ocb---ccb-osb-Nat-csb(N), NB)) -> NOT--OSB-BOOL-CSB(in?-osb-Nat-csb-osb-NatBag-csb(N, NB))
   SET?-OSB-NATBAG-CSB(---osb-NatBag-csb-osb-NatBag-csb(ocb---ccb-osb-Nat-csb(N), NB)) -> IN?-OSB-NAT-CSB-OSB-NATBAG-CSB(N, NB)
   SET?-OSB-NATBAG-CSB(---osb-NatBag-csb-osb-NatBag-csb(ocb---ccb-osb-Nat-csb(N), NB)) -> SET?-OSB-NATBAG-CSB(NB)
   SET?-OSB-NATBAG-CSB(ocb---ccb-osb-Nat-csb(N)) -> -AND--OSB-BOOL-CSB-OSB-BOOL-CSB(not--osb-Bool-csb(in?-osb-Nat-csb-osb-NatBag-csb(N, mtbag)), set?-osb-NatBag-csb(mtbag))
   SET?-OSB-NATBAG-CSB(ocb---ccb-osb-Nat-csb(N)) -> NOT--OSB-BOOL-CSB(in?-osb-Nat-csb-osb-NatBag-csb(N, mtbag))
   SET?-OSB-NATBAG-CSB(ocb---ccb-osb-Nat-csb(N)) -> IN?-OSB-NAT-CSB-OSB-NATBAG-CSB(N, mtbag)
   SET?-OSB-NATBAG-CSB(ocb---ccb-osb-Nat-csb(N)) -> SET?-OSB-NATBAG-CSB(mtbag)
   UNIQUE-TICKETS-OSB-STATE-CSB(-:-osb---csb-osb-Nat-csb-osb-Nat-csb-osb-ProcSet-csb(N, M, Ps)) -> SET?-OSB-NATBAG-CSB(tickets-osb-ProcSet-csb(Ps))
   UNIQUE-TICKETS-OSB-STATE-CSB(-:-osb---csb-osb-Nat-csb-osb-Nat-csb-osb-ProcSet-csb(N, M, Ps)) -> TICKETS-OSB-PROCSET-CSB(Ps)

Furthermore, R contains six SCCs.



   R     ->DPs

       ->DP Problem 1
         ->Polynomial Ordering
       ->DP Problem 2
         ->Polo
       ->DP Problem 3
         ->Polo
       ->DP Problem 4
         ->Polo
       ->DP Problem 5
         ->Polo
       ->DP Problem 6
         ->Polo


Dependency Pairs:
TICKETS-OSB-PROCSET-CSB(---osb-ProcSet-csb-osb-ProcSet-csb(crit-osb-Nat-csb(N), Ps)) -> TICKETS-OSB-PROCSET-CSB(Ps)
TICKETS-OSB-PROCSET-CSB(---osb-ProcSet-csb-osb-ProcSet-csb(wait-osb-Nat-csb(N), Ps)) -> TICKETS-OSB-PROCSET-CSB(Ps)
TICKETS-OSB-PROCSET-CSB(---osb-ProcSet-csb-osb-ProcSet-csb(idle, Ps)) -> TICKETS-OSB-PROCSET-CSB(Ps)
Rules:

   sub-bag-osb-NatBag-csb-osb-NatBag-csb(NB, NB) -> true
   sub-bag-osb-NatBag-csb-osb-NatBag-csb(NB, ---osb-NatBag-csb-osb-NatBag-csb(NB, NB')) -> true
   sub-bag-osb-NatBag-csb-osb-NatBag-csb(mtbag, NB') -> true
   -or--osb-Bool-csb-osb-Bool-csb(true, B) -> true
   -or--osb-Bool-csb-osb-Bool-csb(false, B) -> B
   good-state-osb-State-csb(-:-osb---csb-osb-Nat-csb-osb-Nat-csb-osb-ProcSet-csb(N, M, Ws)) -> true
   good-state-osb-State-csb(-:-osb---csb-osb-Nat-csb-osb-Nat-csb-osb-ProcSet-csb(N, M, ---osb-ProcSet-csb-osb-ProcSet-csb(crit-osb-Nat-csb(M'), ---osb-ProcSet-csb-osb-ProcSet-csb(crit-osb-Nat-csb(N'), Ps)))) -> false
   good-state-osb-State-csb(-:-osb---csb-osb-Nat-csb-osb-Nat-csb-osb-ProcSet-csb(N, M, ---osb-ProcSet-csb-osb-ProcSet-csb(crit-osb-Nat-csb(N'), crit-osb-Nat-csb(M')))) -> false
   good-state-osb-State-csb(-:-osb---csb-osb-Nat-csb-osb-Nat-csb-osb-ProcSet-csb(N, M, ---osb-ProcSet-csb-osb-ProcSet-csb(crit-osb-Nat-csb(M), Ws))) -> true
   good-state-osb-State-csb(-:-osb---csb-osb-Nat-csb-osb-Nat-csb-osb-ProcSet-csb(N, M, crit-osb-Nat-csb(M))) -> true
   tickets-osb-ProcSet-csb(wait-osb-Nat-csb(N)) -> ---osb-NatBag-csb-osb-NatBag-csb(ocb---ccb-osb-Nat-csb(N), tickets-osb-ProcSet-csb(none))
   tickets-osb-ProcSet-csb(crit-osb-Nat-csb(N)) -> ---osb-NatBag-csb-osb-NatBag-csb(ocb---ccb-osb-Nat-csb(N), tickets-osb-ProcSet-csb(none))
   tickets-osb-ProcSet-csb(---osb-ProcSet-csb-osb-ProcSet-csb(idle, Ps)) -> tickets-osb-ProcSet-csb(Ps)
   tickets-osb-ProcSet-csb(---osb-ProcSet-csb-osb-ProcSet-csb(wait-osb-Nat-csb(N), Ps)) -> ---osb-NatBag-csb-osb-NatBag-csb(ocb---ccb-osb-Nat-csb(N), tickets-osb-ProcSet-csb(Ps))
   tickets-osb-ProcSet-csb(idle) -> tickets-osb-ProcSet-csb(none)
   tickets-osb-ProcSet-csb(---osb-ProcSet-csb-osb-ProcSet-csb(crit-osb-Nat-csb(N), Ps)) -> ---osb-NatBag-csb-osb-NatBag-csb(ocb---ccb-osb-Nat-csb(N), tickets-osb-ProcSet-csb(Ps))
   tickets-osb-ProcSet-csb(Is) -> mtbag
   ---osb-NatBag-csb-osb-NatBag-csb(mtbag, X) -> X
   =-osb-Nat-csb-osb-Nat-csb(0, 0) -> true
   =-osb-Nat-csb-osb-Nat-csb(N, N) -> true
   =-osb-Nat-csb-osb-Nat-csb(s-osb-Nat-csb(N), s-osb-Nat-csb(N')) -> =-osb-Nat-csb-osb-Nat-csb(N, N')
   =-osb-Nat-csb-osb-Nat-csb(0, s-osb-Nat-csb(N)) -> false
   =-osb-Nat-csb-osb-Nat-csb(s-osb-Nat-csb(N), 0) -> false
   bounded-tickets-osb-State-csb(-:-osb---csb-osb-Nat-csb-osb-Nat-csb-osb-ProcSet-csb(N, M, Ps)) -> sub-bag-osb-NatBag-csb-osb-NatBag-csb(tickets-osb-ProcSet-csb(Ps), tickets-below-osb-Nat-csb(N))
   tickets-below-osb-Nat-csb(s-osb-Nat-csb(N)) -> ---osb-NatBag-csb-osb-NatBag-csb(ocb---ccb-osb-Nat-csb(N), tickets-below-osb-Nat-csb(N))
   tickets-below-osb-Nat-csb(0) -> mtbag
   mutex-osb-State-csb(-:-osb---csb-osb-Nat-csb-osb-Nat-csb-osb-ProcSet-csb(N, M, ---osb-ProcSet-csb-osb-ProcSet-csb(crit-osb-Nat-csb(M'), ---osb-ProcSet-csb-osb-ProcSet-csb(crit-osb-Nat-csb(N'), Ps)))) -> false
   mutex-osb-State-csb(-:-osb---csb-osb-Nat-csb-osb-Nat-csb-osb-ProcSet-csb(N, M, Ws)) -> true
   mutex-osb-State-csb(-:-osb---csb-osb-Nat-csb-osb-Nat-csb-osb-ProcSet-csb(N, M, ---osb-ProcSet-csb-osb-ProcSet-csb(crit-osb-Nat-csb(M'), Ws))) -> true
   mutex-osb-State-csb(-:-osb---csb-osb-Nat-csb-osb-Nat-csb-osb-ProcSet-csb(N, M, crit-osb-Nat-csb(M'))) -> true
   mutex-osb-State-csb(-:-osb---csb-osb-Nat-csb-osb-Nat-csb-osb-ProcSet-csb(N, M, ---osb-ProcSet-csb-osb-ProcSet-csb(crit-osb-Nat-csb(N'), crit-osb-Nat-csb(M')))) -> false
   ---osb-ProcSet-csb-osb-ProcSet-csb(none, X) -> X
   in?-osb-Nat-csb-osb-NatBag-csb(N, ---osb-NatBag-csb-osb-NatBag-csb(ocb---ccb-osb-Nat-csb(M), NB)) -> -or--osb-Bool-csb-osb-Bool-csb(=-osb-Nat-csb-osb-Nat-csb(N, M), in?-osb-Nat-csb-osb-NatBag-csb(N, NB))
   in?-osb-Nat-csb-osb-NatBag-csb(N, ocb---ccb-osb-Nat-csb(M)) -> -or--osb-Bool-csb-osb-Bool-csb(=-osb-Nat-csb-osb-Nat-csb(N, M), in?-osb-Nat-csb-osb-NatBag-csb(N, mtbag))
   in?-osb-Nat-csb-osb-NatBag-csb(N, mtbag) -> false
   <=-osb-Nat-csb-osb-Nat-csb(s-osb-Nat-csb(N), 0) -> false
   <=-osb-Nat-csb-osb-Nat-csb(0, N) -> true
   <=-osb-Nat-csb-osb-Nat-csb(N, N) -> true
   <=-osb-Nat-csb-osb-Nat-csb(s-osb-Nat-csb(N), s-osb-Nat-csb(M)) -> <=-osb-Nat-csb-osb-Nat-csb(N, M)
   set?-osb-NatBag-csb(mtbag) -> true
   set?-osb-NatBag-csb(---osb-NatBag-csb-osb-NatBag-csb(ocb---ccb-osb-Nat-csb(N), NB)) -> -and--osb-Bool-csb-osb-Bool-csb(not--osb-Bool-csb(in?-osb-Nat-csb-osb-NatBag-csb(N, NB)), set?-osb-NatBag-csb(NB))
   set?-osb-NatBag-csb(---osb-NatBag-csb-osb-NatBag-csb(ocb---ccb-osb-Nat-csb(N), ---osb-NatBag-csb-osb-NatBag-csb(ocb---ccb-osb-Nat-csb(N), NB))) -> false
   set?-osb-NatBag-csb(ocb---ccb-osb-Nat-csb(N)) -> -and--osb-Bool-csb-osb-Bool-csb(not--osb-Bool-csb(in?-osb-Nat-csb-osb-NatBag-csb(N, mtbag)), set?-osb-NatBag-csb(mtbag))
   set?-osb-NatBag-csb(---osb-NatBag-csb-osb-NatBag-csb(ocb---ccb-osb-Nat-csb(N), ocb---ccb-osb-Nat-csb(N))) -> false
   -and--osb-Bool-csb-osb-Bool-csb(true, B) -> B
   -and--osb-Bool-csb-osb-Bool-csb(false, B) -> false
   not--osb-Bool-csb(true) -> false
   not--osb-Bool-csb(false) -> true
   unique-tickets-osb-State-csb(-:-osb---csb-osb-Nat-csb-osb-Nat-csb-osb-ProcSet-csb(N, M, Ps)) -> set?-osb-NatBag-csb(tickets-osb-ProcSet-csb(Ps))
   init-osb-State-csb(-:-osb---csb-osb-Nat-csb-osb-Nat-csb-osb-ProcSet-csb(0, 0, Is)) -> true




The following dependency pairs can be strictly oriented:


   TICKETS-OSB-PROCSET-CSB(---osb-ProcSet-csb-osb-ProcSet-csb(crit-osb-Nat-csb(N), Ps)) -> TICKETS-OSB-PROCSET-CSB(Ps)
   TICKETS-OSB-PROCSET-CSB(---osb-ProcSet-csb-osb-ProcSet-csb(wait-osb-Nat-csb(N), Ps)) -> TICKETS-OSB-PROCSET-CSB(Ps)
   TICKETS-OSB-PROCSET-CSB(---osb-ProcSet-csb-osb-ProcSet-csb(idle, Ps)) -> TICKETS-OSB-PROCSET-CSB(Ps)


There are no usable rules w.r.t. to the implicit AFS that need to be oriented.


Used ordering: Polynomial ordering with Polynomial interpretation:
POL(idle) = 0
POL(TICKETS-OSB-PROCSET-CSB(x_1)) = x_1
POL(crit-osb-Nat-csb(x_1)) = 0
POL(---osb-ProcSet-csb-osb-ProcSet-csb(x_1, x_2)) = 1 + x_2
POL(wait-osb-Nat-csb(x_1)) = 0

 resulting in one new DP problem.




   R     ->DPs

       ->DP Problem 1
         ->Polo

           ->DP Problem 7
             ->Dependency Graph
       ->DP Problem 2
         ->Polo
       ->DP Problem 3
         ->Polo
       ->DP Problem 4
         ->Polo
       ->DP Problem 5
         ->Polo
       ->DP Problem 6
         ->Polo


Dependency Pair:

Rules:

   sub-bag-osb-NatBag-csb-osb-NatBag-csb(NB, NB) -> true
   sub-bag-osb-NatBag-csb-osb-NatBag-csb(NB, ---osb-NatBag-csb-osb-NatBag-csb(NB, NB')) -> true
   sub-bag-osb-NatBag-csb-osb-NatBag-csb(mtbag, NB') -> true
   -or--osb-Bool-csb-osb-Bool-csb(true, B) -> true
   -or--osb-Bool-csb-osb-Bool-csb(false, B) -> B
   good-state-osb-State-csb(-:-osb---csb-osb-Nat-csb-osb-Nat-csb-osb-ProcSet-csb(N, M, Ws)) -> true
   good-state-osb-State-csb(-:-osb---csb-osb-Nat-csb-osb-Nat-csb-osb-ProcSet-csb(N, M, ---osb-ProcSet-csb-osb-ProcSet-csb(crit-osb-Nat-csb(M'), ---osb-ProcSet-csb-osb-ProcSet-csb(crit-osb-Nat-csb(N'), Ps)))) -> false
   good-state-osb-State-csb(-:-osb---csb-osb-Nat-csb-osb-Nat-csb-osb-ProcSet-csb(N, M, ---osb-ProcSet-csb-osb-ProcSet-csb(crit-osb-Nat-csb(N'), crit-osb-Nat-csb(M')))) -> false
   good-state-osb-State-csb(-:-osb---csb-osb-Nat-csb-osb-Nat-csb-osb-ProcSet-csb(N, M, ---osb-ProcSet-csb-osb-ProcSet-csb(crit-osb-Nat-csb(M), Ws))) -> true
   good-state-osb-State-csb(-:-osb---csb-osb-Nat-csb-osb-Nat-csb-osb-ProcSet-csb(N, M, crit-osb-Nat-csb(M))) -> true
   tickets-osb-ProcSet-csb(wait-osb-Nat-csb(N)) -> ---osb-NatBag-csb-osb-NatBag-csb(ocb---ccb-osb-Nat-csb(N), tickets-osb-ProcSet-csb(none))
   tickets-osb-ProcSet-csb(crit-osb-Nat-csb(N)) -> ---osb-NatBag-csb-osb-NatBag-csb(ocb---ccb-osb-Nat-csb(N), tickets-osb-ProcSet-csb(none))
   tickets-osb-ProcSet-csb(---osb-ProcSet-csb-osb-ProcSet-csb(idle, Ps)) -> tickets-osb-ProcSet-csb(Ps)
   tickets-osb-ProcSet-csb(---osb-ProcSet-csb-osb-ProcSet-csb(wait-osb-Nat-csb(N), Ps)) -> ---osb-NatBag-csb-osb-NatBag-csb(ocb---ccb-osb-Nat-csb(N), tickets-osb-ProcSet-csb(Ps))
   tickets-osb-ProcSet-csb(idle) -> tickets-osb-ProcSet-csb(none)
   tickets-osb-ProcSet-csb(---osb-ProcSet-csb-osb-ProcSet-csb(crit-osb-Nat-csb(N), Ps)) -> ---osb-NatBag-csb-osb-NatBag-csb(ocb---ccb-osb-Nat-csb(N), tickets-osb-ProcSet-csb(Ps))
   tickets-osb-ProcSet-csb(Is) -> mtbag
   ---osb-NatBag-csb-osb-NatBag-csb(mtbag, X) -> X
   =-osb-Nat-csb-osb-Nat-csb(0, 0) -> true
   =-osb-Nat-csb-osb-Nat-csb(N, N) -> true
   =-osb-Nat-csb-osb-Nat-csb(s-osb-Nat-csb(N), s-osb-Nat-csb(N')) -> =-osb-Nat-csb-osb-Nat-csb(N, N')
   =-osb-Nat-csb-osb-Nat-csb(0, s-osb-Nat-csb(N)) -> false
   =-osb-Nat-csb-osb-Nat-csb(s-osb-Nat-csb(N), 0) -> false
   bounded-tickets-osb-State-csb(-:-osb---csb-osb-Nat-csb-osb-Nat-csb-osb-ProcSet-csb(N, M, Ps)) -> sub-bag-osb-NatBag-csb-osb-NatBag-csb(tickets-osb-ProcSet-csb(Ps), tickets-below-osb-Nat-csb(N))
   tickets-below-osb-Nat-csb(s-osb-Nat-csb(N)) -> ---osb-NatBag-csb-osb-NatBag-csb(ocb---ccb-osb-Nat-csb(N), tickets-below-osb-Nat-csb(N))
   tickets-below-osb-Nat-csb(0) -> mtbag
   mutex-osb-State-csb(-:-osb---csb-osb-Nat-csb-osb-Nat-csb-osb-ProcSet-csb(N, M, ---osb-ProcSet-csb-osb-ProcSet-csb(crit-osb-Nat-csb(M'), ---osb-ProcSet-csb-osb-ProcSet-csb(crit-osb-Nat-csb(N'), Ps)))) -> false
   mutex-osb-State-csb(-:-osb---csb-osb-Nat-csb-osb-Nat-csb-osb-ProcSet-csb(N, M, Ws)) -> true
   mutex-osb-State-csb(-:-osb---csb-osb-Nat-csb-osb-Nat-csb-osb-ProcSet-csb(N, M, ---osb-ProcSet-csb-osb-ProcSet-csb(crit-osb-Nat-csb(M'), Ws))) -> true
   mutex-osb-State-csb(-:-osb---csb-osb-Nat-csb-osb-Nat-csb-osb-ProcSet-csb(N, M, crit-osb-Nat-csb(M'))) -> true
   mutex-osb-State-csb(-:-osb---csb-osb-Nat-csb-osb-Nat-csb-osb-ProcSet-csb(N, M, ---osb-ProcSet-csb-osb-ProcSet-csb(crit-osb-Nat-csb(N'), crit-osb-Nat-csb(M')))) -> false
   ---osb-ProcSet-csb-osb-ProcSet-csb(none, X) -> X
   in?-osb-Nat-csb-osb-NatBag-csb(N, ---osb-NatBag-csb-osb-NatBag-csb(ocb---ccb-osb-Nat-csb(M), NB)) -> -or--osb-Bool-csb-osb-Bool-csb(=-osb-Nat-csb-osb-Nat-csb(N, M), in?-osb-Nat-csb-osb-NatBag-csb(N, NB))
   in?-osb-Nat-csb-osb-NatBag-csb(N, ocb---ccb-osb-Nat-csb(M)) -> -or--osb-Bool-csb-osb-Bool-csb(=-osb-Nat-csb-osb-Nat-csb(N, M), in?-osb-Nat-csb-osb-NatBag-csb(N, mtbag))
   in?-osb-Nat-csb-osb-NatBag-csb(N, mtbag) -> false
   <=-osb-Nat-csb-osb-Nat-csb(s-osb-Nat-csb(N), 0) -> false
   <=-osb-Nat-csb-osb-Nat-csb(0, N) -> true
   <=-osb-Nat-csb-osb-Nat-csb(N, N) -> true
   <=-osb-Nat-csb-osb-Nat-csb(s-osb-Nat-csb(N), s-osb-Nat-csb(M)) -> <=-osb-Nat-csb-osb-Nat-csb(N, M)
   set?-osb-NatBag-csb(mtbag) -> true
   set?-osb-NatBag-csb(---osb-NatBag-csb-osb-NatBag-csb(ocb---ccb-osb-Nat-csb(N), NB)) -> -and--osb-Bool-csb-osb-Bool-csb(not--osb-Bool-csb(in?-osb-Nat-csb-osb-NatBag-csb(N, NB)), set?-osb-NatBag-csb(NB))
   set?-osb-NatBag-csb(---osb-NatBag-csb-osb-NatBag-csb(ocb---ccb-osb-Nat-csb(N), ---osb-NatBag-csb-osb-NatBag-csb(ocb---ccb-osb-Nat-csb(N), NB))) -> false
   set?-osb-NatBag-csb(ocb---ccb-osb-Nat-csb(N)) -> -and--osb-Bool-csb-osb-Bool-csb(not--osb-Bool-csb(in?-osb-Nat-csb-osb-NatBag-csb(N, mtbag)), set?-osb-NatBag-csb(mtbag))
   set?-osb-NatBag-csb(---osb-NatBag-csb-osb-NatBag-csb(ocb---ccb-osb-Nat-csb(N), ocb---ccb-osb-Nat-csb(N))) -> false
   -and--osb-Bool-csb-osb-Bool-csb(true, B) -> B
   -and--osb-Bool-csb-osb-Bool-csb(false, B) -> false
   not--osb-Bool-csb(true) -> false
   not--osb-Bool-csb(false) -> true
   unique-tickets-osb-State-csb(-:-osb---csb-osb-Nat-csb-osb-Nat-csb-osb-ProcSet-csb(N, M, Ps)) -> set?-osb-NatBag-csb(tickets-osb-ProcSet-csb(Ps))
   init-osb-State-csb(-:-osb---csb-osb-Nat-csb-osb-Nat-csb-osb-ProcSet-csb(0, 0, Is)) -> true




Using the Dependency Graph resulted in no new DP problems.


   R     ->DPs

       ->DP Problem 1
         ->Polo
       ->DP Problem 2
         ->Polynomial Ordering
       ->DP Problem 3
         ->Polo
       ->DP Problem 4
         ->Polo
       ->DP Problem 5
         ->Polo
       ->DP Problem 6
         ->Polo


Dependency Pair:
=-OSB-NAT-CSB-OSB-NAT-CSB(s-osb-Nat-csb(N), s-osb-Nat-csb(N')) -> =-OSB-NAT-CSB-OSB-NAT-CSB(N, N')
Rules:

   sub-bag-osb-NatBag-csb-osb-NatBag-csb(NB, NB) -> true
   sub-bag-osb-NatBag-csb-osb-NatBag-csb(NB, ---osb-NatBag-csb-osb-NatBag-csb(NB, NB')) -> true
   sub-bag-osb-NatBag-csb-osb-NatBag-csb(mtbag, NB') -> true
   -or--osb-Bool-csb-osb-Bool-csb(true, B) -> true
   -or--osb-Bool-csb-osb-Bool-csb(false, B) -> B
   good-state-osb-State-csb(-:-osb---csb-osb-Nat-csb-osb-Nat-csb-osb-ProcSet-csb(N, M, Ws)) -> true
   good-state-osb-State-csb(-:-osb---csb-osb-Nat-csb-osb-Nat-csb-osb-ProcSet-csb(N, M, ---osb-ProcSet-csb-osb-ProcSet-csb(crit-osb-Nat-csb(M'), ---osb-ProcSet-csb-osb-ProcSet-csb(crit-osb-Nat-csb(N'), Ps)))) -> false
   good-state-osb-State-csb(-:-osb---csb-osb-Nat-csb-osb-Nat-csb-osb-ProcSet-csb(N, M, ---osb-ProcSet-csb-osb-ProcSet-csb(crit-osb-Nat-csb(N'), crit-osb-Nat-csb(M')))) -> false
   good-state-osb-State-csb(-:-osb---csb-osb-Nat-csb-osb-Nat-csb-osb-ProcSet-csb(N, M, ---osb-ProcSet-csb-osb-ProcSet-csb(crit-osb-Nat-csb(M), Ws))) -> true
   good-state-osb-State-csb(-:-osb---csb-osb-Nat-csb-osb-Nat-csb-osb-ProcSet-csb(N, M, crit-osb-Nat-csb(M))) -> true
   tickets-osb-ProcSet-csb(wait-osb-Nat-csb(N)) -> ---osb-NatBag-csb-osb-NatBag-csb(ocb---ccb-osb-Nat-csb(N), tickets-osb-ProcSet-csb(none))
   tickets-osb-ProcSet-csb(crit-osb-Nat-csb(N)) -> ---osb-NatBag-csb-osb-NatBag-csb(ocb---ccb-osb-Nat-csb(N), tickets-osb-ProcSet-csb(none))
   tickets-osb-ProcSet-csb(---osb-ProcSet-csb-osb-ProcSet-csb(idle, Ps)) -> tickets-osb-ProcSet-csb(Ps)
   tickets-osb-ProcSet-csb(---osb-ProcSet-csb-osb-ProcSet-csb(wait-osb-Nat-csb(N), Ps)) -> ---osb-NatBag-csb-osb-NatBag-csb(ocb---ccb-osb-Nat-csb(N), tickets-osb-ProcSet-csb(Ps))
   tickets-osb-ProcSet-csb(idle) -> tickets-osb-ProcSet-csb(none)
   tickets-osb-ProcSet-csb(---osb-ProcSet-csb-osb-ProcSet-csb(crit-osb-Nat-csb(N), Ps)) -> ---osb-NatBag-csb-osb-NatBag-csb(ocb---ccb-osb-Nat-csb(N), tickets-osb-ProcSet-csb(Ps))
   tickets-osb-ProcSet-csb(Is) -> mtbag
   ---osb-NatBag-csb-osb-NatBag-csb(mtbag, X) -> X
   =-osb-Nat-csb-osb-Nat-csb(0, 0) -> true
   =-osb-Nat-csb-osb-Nat-csb(N, N) -> true
   =-osb-Nat-csb-osb-Nat-csb(s-osb-Nat-csb(N), s-osb-Nat-csb(N')) -> =-osb-Nat-csb-osb-Nat-csb(N, N')
   =-osb-Nat-csb-osb-Nat-csb(0, s-osb-Nat-csb(N)) -> false
   =-osb-Nat-csb-osb-Nat-csb(s-osb-Nat-csb(N), 0) -> false
   bounded-tickets-osb-State-csb(-:-osb---csb-osb-Nat-csb-osb-Nat-csb-osb-ProcSet-csb(N, M, Ps)) -> sub-bag-osb-NatBag-csb-osb-NatBag-csb(tickets-osb-ProcSet-csb(Ps), tickets-below-osb-Nat-csb(N))
   tickets-below-osb-Nat-csb(s-osb-Nat-csb(N)) -> ---osb-NatBag-csb-osb-NatBag-csb(ocb---ccb-osb-Nat-csb(N), tickets-below-osb-Nat-csb(N))
   tickets-below-osb-Nat-csb(0) -> mtbag
   mutex-osb-State-csb(-:-osb---csb-osb-Nat-csb-osb-Nat-csb-osb-ProcSet-csb(N, M, ---osb-ProcSet-csb-osb-ProcSet-csb(crit-osb-Nat-csb(M'), ---osb-ProcSet-csb-osb-ProcSet-csb(crit-osb-Nat-csb(N'), Ps)))) -> false
   mutex-osb-State-csb(-:-osb---csb-osb-Nat-csb-osb-Nat-csb-osb-ProcSet-csb(N, M, Ws)) -> true
   mutex-osb-State-csb(-:-osb---csb-osb-Nat-csb-osb-Nat-csb-osb-ProcSet-csb(N, M, ---osb-ProcSet-csb-osb-ProcSet-csb(crit-osb-Nat-csb(M'), Ws))) -> true
   mutex-osb-State-csb(-:-osb---csb-osb-Nat-csb-osb-Nat-csb-osb-ProcSet-csb(N, M, crit-osb-Nat-csb(M'))) -> true
   mutex-osb-State-csb(-:-osb---csb-osb-Nat-csb-osb-Nat-csb-osb-ProcSet-csb(N, M, ---osb-ProcSet-csb-osb-ProcSet-csb(crit-osb-Nat-csb(N'), crit-osb-Nat-csb(M')))) -> false
   ---osb-ProcSet-csb-osb-ProcSet-csb(none, X) -> X
   in?-osb-Nat-csb-osb-NatBag-csb(N, ---osb-NatBag-csb-osb-NatBag-csb(ocb---ccb-osb-Nat-csb(M), NB)) -> -or--osb-Bool-csb-osb-Bool-csb(=-osb-Nat-csb-osb-Nat-csb(N, M), in?-osb-Nat-csb-osb-NatBag-csb(N, NB))
   in?-osb-Nat-csb-osb-NatBag-csb(N, ocb---ccb-osb-Nat-csb(M)) -> -or--osb-Bool-csb-osb-Bool-csb(=-osb-Nat-csb-osb-Nat-csb(N, M), in?-osb-Nat-csb-osb-NatBag-csb(N, mtbag))
   in?-osb-Nat-csb-osb-NatBag-csb(N, mtbag) -> false
   <=-osb-Nat-csb-osb-Nat-csb(s-osb-Nat-csb(N), 0) -> false
   <=-osb-Nat-csb-osb-Nat-csb(0, N) -> true
   <=-osb-Nat-csb-osb-Nat-csb(N, N) -> true
   <=-osb-Nat-csb-osb-Nat-csb(s-osb-Nat-csb(N), s-osb-Nat-csb(M)) -> <=-osb-Nat-csb-osb-Nat-csb(N, M)
   set?-osb-NatBag-csb(mtbag) -> true
   set?-osb-NatBag-csb(---osb-NatBag-csb-osb-NatBag-csb(ocb---ccb-osb-Nat-csb(N), NB)) -> -and--osb-Bool-csb-osb-Bool-csb(not--osb-Bool-csb(in?-osb-Nat-csb-osb-NatBag-csb(N, NB)), set?-osb-NatBag-csb(NB))
   set?-osb-NatBag-csb(---osb-NatBag-csb-osb-NatBag-csb(ocb---ccb-osb-Nat-csb(N), ---osb-NatBag-csb-osb-NatBag-csb(ocb---ccb-osb-Nat-csb(N), NB))) -> false
   set?-osb-NatBag-csb(ocb---ccb-osb-Nat-csb(N)) -> -and--osb-Bool-csb-osb-Bool-csb(not--osb-Bool-csb(in?-osb-Nat-csb-osb-NatBag-csb(N, mtbag)), set?-osb-NatBag-csb(mtbag))
   set?-osb-NatBag-csb(---osb-NatBag-csb-osb-NatBag-csb(ocb---ccb-osb-Nat-csb(N), ocb---ccb-osb-Nat-csb(N))) -> false
   -and--osb-Bool-csb-osb-Bool-csb(true, B) -> B
   -and--osb-Bool-csb-osb-Bool-csb(false, B) -> false
   not--osb-Bool-csb(true) -> false
   not--osb-Bool-csb(false) -> true
   unique-tickets-osb-State-csb(-:-osb---csb-osb-Nat-csb-osb-Nat-csb-osb-ProcSet-csb(N, M, Ps)) -> set?-osb-NatBag-csb(tickets-osb-ProcSet-csb(Ps))
   init-osb-State-csb(-:-osb---csb-osb-Nat-csb-osb-Nat-csb-osb-ProcSet-csb(0, 0, Is)) -> true




The following dependency pair can be strictly oriented:


   =-OSB-NAT-CSB-OSB-NAT-CSB(s-osb-Nat-csb(N), s-osb-Nat-csb(N')) -> =-OSB-NAT-CSB-OSB-NAT-CSB(N, N')


There are no usable rules w.r.t. to the implicit AFS that need to be oriented.


Used ordering: Polynomial ordering with Polynomial interpretation:
POL(s-osb-Nat-csb(x_1)) = 1 + x_1
POL(=-OSB-NAT-CSB-OSB-NAT-CSB(x_1, x_2)) = 1 + x_1

 resulting in one new DP problem.




   R     ->DPs

       ->DP Problem 1
         ->Polo
       ->DP Problem 2
         ->Polo
       ->DP Problem 3
         ->Polynomial Ordering
       ->DP Problem 4
         ->Polo
       ->DP Problem 5
         ->Polo
       ->DP Problem 6
         ->Polo


Dependency Pair:
TICKETS-BELOW-OSB-NAT-CSB(s-osb-Nat-csb(N)) -> TICKETS-BELOW-OSB-NAT-CSB(N)
Rules:

   sub-bag-osb-NatBag-csb-osb-NatBag-csb(NB, NB) -> true
   sub-bag-osb-NatBag-csb-osb-NatBag-csb(NB, ---osb-NatBag-csb-osb-NatBag-csb(NB, NB')) -> true
   sub-bag-osb-NatBag-csb-osb-NatBag-csb(mtbag, NB') -> true
   -or--osb-Bool-csb-osb-Bool-csb(true, B) -> true
   -or--osb-Bool-csb-osb-Bool-csb(false, B) -> B
   good-state-osb-State-csb(-:-osb---csb-osb-Nat-csb-osb-Nat-csb-osb-ProcSet-csb(N, M, Ws)) -> true
   good-state-osb-State-csb(-:-osb---csb-osb-Nat-csb-osb-Nat-csb-osb-ProcSet-csb(N, M, ---osb-ProcSet-csb-osb-ProcSet-csb(crit-osb-Nat-csb(M'), ---osb-ProcSet-csb-osb-ProcSet-csb(crit-osb-Nat-csb(N'), Ps)))) -> false
   good-state-osb-State-csb(-:-osb---csb-osb-Nat-csb-osb-Nat-csb-osb-ProcSet-csb(N, M, ---osb-ProcSet-csb-osb-ProcSet-csb(crit-osb-Nat-csb(N'), crit-osb-Nat-csb(M')))) -> false
   good-state-osb-State-csb(-:-osb---csb-osb-Nat-csb-osb-Nat-csb-osb-ProcSet-csb(N, M, ---osb-ProcSet-csb-osb-ProcSet-csb(crit-osb-Nat-csb(M), Ws))) -> true
   good-state-osb-State-csb(-:-osb---csb-osb-Nat-csb-osb-Nat-csb-osb-ProcSet-csb(N, M, crit-osb-Nat-csb(M))) -> true
   tickets-osb-ProcSet-csb(wait-osb-Nat-csb(N)) -> ---osb-NatBag-csb-osb-NatBag-csb(ocb---ccb-osb-Nat-csb(N), tickets-osb-ProcSet-csb(none))
   tickets-osb-ProcSet-csb(crit-osb-Nat-csb(N)) -> ---osb-NatBag-csb-osb-NatBag-csb(ocb---ccb-osb-Nat-csb(N), tickets-osb-ProcSet-csb(none))
   tickets-osb-ProcSet-csb(---osb-ProcSet-csb-osb-ProcSet-csb(idle, Ps)) -> tickets-osb-ProcSet-csb(Ps)
   tickets-osb-ProcSet-csb(---osb-ProcSet-csb-osb-ProcSet-csb(wait-osb-Nat-csb(N), Ps)) -> ---osb-NatBag-csb-osb-NatBag-csb(ocb---ccb-osb-Nat-csb(N), tickets-osb-ProcSet-csb(Ps))
   tickets-osb-ProcSet-csb(idle) -> tickets-osb-ProcSet-csb(none)
   tickets-osb-ProcSet-csb(---osb-ProcSet-csb-osb-ProcSet-csb(crit-osb-Nat-csb(N), Ps)) -> ---osb-NatBag-csb-osb-NatBag-csb(ocb---ccb-osb-Nat-csb(N), tickets-osb-ProcSet-csb(Ps))
   tickets-osb-ProcSet-csb(Is) -> mtbag
   ---osb-NatBag-csb-osb-NatBag-csb(mtbag, X) -> X
   =-osb-Nat-csb-osb-Nat-csb(0, 0) -> true
   =-osb-Nat-csb-osb-Nat-csb(N, N) -> true
   =-osb-Nat-csb-osb-Nat-csb(s-osb-Nat-csb(N), s-osb-Nat-csb(N')) -> =-osb-Nat-csb-osb-Nat-csb(N, N')
   =-osb-Nat-csb-osb-Nat-csb(0, s-osb-Nat-csb(N)) -> false
   =-osb-Nat-csb-osb-Nat-csb(s-osb-Nat-csb(N), 0) -> false
   bounded-tickets-osb-State-csb(-:-osb---csb-osb-Nat-csb-osb-Nat-csb-osb-ProcSet-csb(N, M, Ps)) -> sub-bag-osb-NatBag-csb-osb-NatBag-csb(tickets-osb-ProcSet-csb(Ps), tickets-below-osb-Nat-csb(N))
   tickets-below-osb-Nat-csb(s-osb-Nat-csb(N)) -> ---osb-NatBag-csb-osb-NatBag-csb(ocb---ccb-osb-Nat-csb(N), tickets-below-osb-Nat-csb(N))
   tickets-below-osb-Nat-csb(0) -> mtbag
   mutex-osb-State-csb(-:-osb---csb-osb-Nat-csb-osb-Nat-csb-osb-ProcSet-csb(N, M, ---osb-ProcSet-csb-osb-ProcSet-csb(crit-osb-Nat-csb(M'), ---osb-ProcSet-csb-osb-ProcSet-csb(crit-osb-Nat-csb(N'), Ps)))) -> false
   mutex-osb-State-csb(-:-osb---csb-osb-Nat-csb-osb-Nat-csb-osb-ProcSet-csb(N, M, Ws)) -> true
   mutex-osb-State-csb(-:-osb---csb-osb-Nat-csb-osb-Nat-csb-osb-ProcSet-csb(N, M, ---osb-ProcSet-csb-osb-ProcSet-csb(crit-osb-Nat-csb(M'), Ws))) -> true
   mutex-osb-State-csb(-:-osb---csb-osb-Nat-csb-osb-Nat-csb-osb-ProcSet-csb(N, M, crit-osb-Nat-csb(M'))) -> true
   mutex-osb-State-csb(-:-osb---csb-osb-Nat-csb-osb-Nat-csb-osb-ProcSet-csb(N, M, ---osb-ProcSet-csb-osb-ProcSet-csb(crit-osb-Nat-csb(N'), crit-osb-Nat-csb(M')))) -> false
   ---osb-ProcSet-csb-osb-ProcSet-csb(none, X) -> X
   in?-osb-Nat-csb-osb-NatBag-csb(N, ---osb-NatBag-csb-osb-NatBag-csb(ocb---ccb-osb-Nat-csb(M), NB)) -> -or--osb-Bool-csb-osb-Bool-csb(=-osb-Nat-csb-osb-Nat-csb(N, M), in?-osb-Nat-csb-osb-NatBag-csb(N, NB))
   in?-osb-Nat-csb-osb-NatBag-csb(N, ocb---ccb-osb-Nat-csb(M)) -> -or--osb-Bool-csb-osb-Bool-csb(=-osb-Nat-csb-osb-Nat-csb(N, M), in?-osb-Nat-csb-osb-NatBag-csb(N, mtbag))
   in?-osb-Nat-csb-osb-NatBag-csb(N, mtbag) -> false
   <=-osb-Nat-csb-osb-Nat-csb(s-osb-Nat-csb(N), 0) -> false
   <=-osb-Nat-csb-osb-Nat-csb(0, N) -> true
   <=-osb-Nat-csb-osb-Nat-csb(N, N) -> true
   <=-osb-Nat-csb-osb-Nat-csb(s-osb-Nat-csb(N), s-osb-Nat-csb(M)) -> <=-osb-Nat-csb-osb-Nat-csb(N, M)
   set?-osb-NatBag-csb(mtbag) -> true
   set?-osb-NatBag-csb(---osb-NatBag-csb-osb-NatBag-csb(ocb---ccb-osb-Nat-csb(N), NB)) -> -and--osb-Bool-csb-osb-Bool-csb(not--osb-Bool-csb(in?-osb-Nat-csb-osb-NatBag-csb(N, NB)), set?-osb-NatBag-csb(NB))
   set?-osb-NatBag-csb(---osb-NatBag-csb-osb-NatBag-csb(ocb---ccb-osb-Nat-csb(N), ---osb-NatBag-csb-osb-NatBag-csb(ocb---ccb-osb-Nat-csb(N), NB))) -> false
   set?-osb-NatBag-csb(ocb---ccb-osb-Nat-csb(N)) -> -and--osb-Bool-csb-osb-Bool-csb(not--osb-Bool-csb(in?-osb-Nat-csb-osb-NatBag-csb(N, mtbag)), set?-osb-NatBag-csb(mtbag))
   set?-osb-NatBag-csb(---osb-NatBag-csb-osb-NatBag-csb(ocb---ccb-osb-Nat-csb(N), ocb---ccb-osb-Nat-csb(N))) -> false
   -and--osb-Bool-csb-osb-Bool-csb(true, B) -> B
   -and--osb-Bool-csb-osb-Bool-csb(false, B) -> false
   not--osb-Bool-csb(true) -> false
   not--osb-Bool-csb(false) -> true
   unique-tickets-osb-State-csb(-:-osb---csb-osb-Nat-csb-osb-Nat-csb-osb-ProcSet-csb(N, M, Ps)) -> set?-osb-NatBag-csb(tickets-osb-ProcSet-csb(Ps))
   init-osb-State-csb(-:-osb---csb-osb-Nat-csb-osb-Nat-csb-osb-ProcSet-csb(0, 0, Is)) -> true




The following dependency pair can be strictly oriented:


   TICKETS-BELOW-OSB-NAT-CSB(s-osb-Nat-csb(N)) -> TICKETS-BELOW-OSB-NAT-CSB(N)


There are no usable rules w.r.t. to the implicit AFS that need to be oriented.


Used ordering: Polynomial ordering with Polynomial interpretation:
POL(TICKETS-BELOW-OSB-NAT-CSB(x_1)) = 1 + x_1
POL(s-osb-Nat-csb(x_1)) = 1 + x_1

 resulting in one new DP problem.




   R     ->DPs

       ->DP Problem 1
         ->Polo
       ->DP Problem 2
         ->Polo
       ->DP Problem 3
         ->Polo
       ->DP Problem 4
         ->Polynomial Ordering
       ->DP Problem 5
         ->Polo
       ->DP Problem 6
         ->Polo


Dependency Pair:
IN?-OSB-NAT-CSB-OSB-NATBAG-CSB(N, ---osb-NatBag-csb-osb-NatBag-csb(ocb---ccb-osb-Nat-csb(M), NB)) -> IN?-OSB-NAT-CSB-OSB-NATBAG-CSB(N, NB)
Rules:

   sub-bag-osb-NatBag-csb-osb-NatBag-csb(NB, NB) -> true
   sub-bag-osb-NatBag-csb-osb-NatBag-csb(NB, ---osb-NatBag-csb-osb-NatBag-csb(NB, NB')) -> true
   sub-bag-osb-NatBag-csb-osb-NatBag-csb(mtbag, NB') -> true
   -or--osb-Bool-csb-osb-Bool-csb(true, B) -> true
   -or--osb-Bool-csb-osb-Bool-csb(false, B) -> B
   good-state-osb-State-csb(-:-osb---csb-osb-Nat-csb-osb-Nat-csb-osb-ProcSet-csb(N, M, Ws)) -> true
   good-state-osb-State-csb(-:-osb---csb-osb-Nat-csb-osb-Nat-csb-osb-ProcSet-csb(N, M, ---osb-ProcSet-csb-osb-ProcSet-csb(crit-osb-Nat-csb(M'), ---osb-ProcSet-csb-osb-ProcSet-csb(crit-osb-Nat-csb(N'), Ps)))) -> false
   good-state-osb-State-csb(-:-osb---csb-osb-Nat-csb-osb-Nat-csb-osb-ProcSet-csb(N, M, ---osb-ProcSet-csb-osb-ProcSet-csb(crit-osb-Nat-csb(N'), crit-osb-Nat-csb(M')))) -> false
   good-state-osb-State-csb(-:-osb---csb-osb-Nat-csb-osb-Nat-csb-osb-ProcSet-csb(N, M, ---osb-ProcSet-csb-osb-ProcSet-csb(crit-osb-Nat-csb(M), Ws))) -> true
   good-state-osb-State-csb(-:-osb---csb-osb-Nat-csb-osb-Nat-csb-osb-ProcSet-csb(N, M, crit-osb-Nat-csb(M))) -> true
   tickets-osb-ProcSet-csb(wait-osb-Nat-csb(N)) -> ---osb-NatBag-csb-osb-NatBag-csb(ocb---ccb-osb-Nat-csb(N), tickets-osb-ProcSet-csb(none))
   tickets-osb-ProcSet-csb(crit-osb-Nat-csb(N)) -> ---osb-NatBag-csb-osb-NatBag-csb(ocb---ccb-osb-Nat-csb(N), tickets-osb-ProcSet-csb(none))
   tickets-osb-ProcSet-csb(---osb-ProcSet-csb-osb-ProcSet-csb(idle, Ps)) -> tickets-osb-ProcSet-csb(Ps)
   tickets-osb-ProcSet-csb(---osb-ProcSet-csb-osb-ProcSet-csb(wait-osb-Nat-csb(N), Ps)) -> ---osb-NatBag-csb-osb-NatBag-csb(ocb---ccb-osb-Nat-csb(N), tickets-osb-ProcSet-csb(Ps))
   tickets-osb-ProcSet-csb(idle) -> tickets-osb-ProcSet-csb(none)
   tickets-osb-ProcSet-csb(---osb-ProcSet-csb-osb-ProcSet-csb(crit-osb-Nat-csb(N), Ps)) -> ---osb-NatBag-csb-osb-NatBag-csb(ocb---ccb-osb-Nat-csb(N), tickets-osb-ProcSet-csb(Ps))
   tickets-osb-ProcSet-csb(Is) -> mtbag
   ---osb-NatBag-csb-osb-NatBag-csb(mtbag, X) -> X
   =-osb-Nat-csb-osb-Nat-csb(0, 0) -> true
   =-osb-Nat-csb-osb-Nat-csb(N, N) -> true
   =-osb-Nat-csb-osb-Nat-csb(s-osb-Nat-csb(N), s-osb-Nat-csb(N')) -> =-osb-Nat-csb-osb-Nat-csb(N, N')
   =-osb-Nat-csb-osb-Nat-csb(0, s-osb-Nat-csb(N)) -> false
   =-osb-Nat-csb-osb-Nat-csb(s-osb-Nat-csb(N), 0) -> false
   bounded-tickets-osb-State-csb(-:-osb---csb-osb-Nat-csb-osb-Nat-csb-osb-ProcSet-csb(N, M, Ps)) -> sub-bag-osb-NatBag-csb-osb-NatBag-csb(tickets-osb-ProcSet-csb(Ps), tickets-below-osb-Nat-csb(N))
   tickets-below-osb-Nat-csb(s-osb-Nat-csb(N)) -> ---osb-NatBag-csb-osb-NatBag-csb(ocb---ccb-osb-Nat-csb(N), tickets-below-osb-Nat-csb(N))
   tickets-below-osb-Nat-csb(0) -> mtbag
   mutex-osb-State-csb(-:-osb---csb-osb-Nat-csb-osb-Nat-csb-osb-ProcSet-csb(N, M, ---osb-ProcSet-csb-osb-ProcSet-csb(crit-osb-Nat-csb(M'), ---osb-ProcSet-csb-osb-ProcSet-csb(crit-osb-Nat-csb(N'), Ps)))) -> false
   mutex-osb-State-csb(-:-osb---csb-osb-Nat-csb-osb-Nat-csb-osb-ProcSet-csb(N, M, Ws)) -> true
   mutex-osb-State-csb(-:-osb---csb-osb-Nat-csb-osb-Nat-csb-osb-ProcSet-csb(N, M, ---osb-ProcSet-csb-osb-ProcSet-csb(crit-osb-Nat-csb(M'), Ws))) -> true
   mutex-osb-State-csb(-:-osb---csb-osb-Nat-csb-osb-Nat-csb-osb-ProcSet-csb(N, M, crit-osb-Nat-csb(M'))) -> true
   mutex-osb-State-csb(-:-osb---csb-osb-Nat-csb-osb-Nat-csb-osb-ProcSet-csb(N, M, ---osb-ProcSet-csb-osb-ProcSet-csb(crit-osb-Nat-csb(N'), crit-osb-Nat-csb(M')))) -> false
   ---osb-ProcSet-csb-osb-ProcSet-csb(none, X) -> X
   in?-osb-Nat-csb-osb-NatBag-csb(N, ---osb-NatBag-csb-osb-NatBag-csb(ocb---ccb-osb-Nat-csb(M), NB)) -> -or--osb-Bool-csb-osb-Bool-csb(=-osb-Nat-csb-osb-Nat-csb(N, M), in?-osb-Nat-csb-osb-NatBag-csb(N, NB))
   in?-osb-Nat-csb-osb-NatBag-csb(N, ocb---ccb-osb-Nat-csb(M)) -> -or--osb-Bool-csb-osb-Bool-csb(=-osb-Nat-csb-osb-Nat-csb(N, M), in?-osb-Nat-csb-osb-NatBag-csb(N, mtbag))
   in?-osb-Nat-csb-osb-NatBag-csb(N, mtbag) -> false
   <=-osb-Nat-csb-osb-Nat-csb(s-osb-Nat-csb(N), 0) -> false
   <=-osb-Nat-csb-osb-Nat-csb(0, N) -> true
   <=-osb-Nat-csb-osb-Nat-csb(N, N) -> true
   <=-osb-Nat-csb-osb-Nat-csb(s-osb-Nat-csb(N), s-osb-Nat-csb(M)) -> <=-osb-Nat-csb-osb-Nat-csb(N, M)
   set?-osb-NatBag-csb(mtbag) -> true
   set?-osb-NatBag-csb(---osb-NatBag-csb-osb-NatBag-csb(ocb---ccb-osb-Nat-csb(N), NB)) -> -and--osb-Bool-csb-osb-Bool-csb(not--osb-Bool-csb(in?-osb-Nat-csb-osb-NatBag-csb(N, NB)), set?-osb-NatBag-csb(NB))
   set?-osb-NatBag-csb(---osb-NatBag-csb-osb-NatBag-csb(ocb---ccb-osb-Nat-csb(N), ---osb-NatBag-csb-osb-NatBag-csb(ocb---ccb-osb-Nat-csb(N), NB))) -> false
   set?-osb-NatBag-csb(ocb---ccb-osb-Nat-csb(N)) -> -and--osb-Bool-csb-osb-Bool-csb(not--osb-Bool-csb(in?-osb-Nat-csb-osb-NatBag-csb(N, mtbag)), set?-osb-NatBag-csb(mtbag))
   set?-osb-NatBag-csb(---osb-NatBag-csb-osb-NatBag-csb(ocb---ccb-osb-Nat-csb(N), ocb---ccb-osb-Nat-csb(N))) -> false
   -and--osb-Bool-csb-osb-Bool-csb(true, B) -> B
   -and--osb-Bool-csb-osb-Bool-csb(false, B) -> false
   not--osb-Bool-csb(true) -> false
   not--osb-Bool-csb(false) -> true
   unique-tickets-osb-State-csb(-:-osb---csb-osb-Nat-csb-osb-Nat-csb-osb-ProcSet-csb(N, M, Ps)) -> set?-osb-NatBag-csb(tickets-osb-ProcSet-csb(Ps))
   init-osb-State-csb(-:-osb---csb-osb-Nat-csb-osb-Nat-csb-osb-ProcSet-csb(0, 0, Is)) -> true




The following dependency pair can be strictly oriented:


   IN?-OSB-NAT-CSB-OSB-NATBAG-CSB(N, ---osb-NatBag-csb-osb-NatBag-csb(ocb---ccb-osb-Nat-csb(M), NB)) -> IN?-OSB-NAT-CSB-OSB-NATBAG-CSB(N, NB)


There are no usable rules w.r.t. to the implicit AFS that need to be oriented.


Used ordering: Polynomial ordering with Polynomial interpretation:
POL(IN?-OSB-NAT-CSB-OSB-NATBAG-CSB(x_1, x_2)) = x_2
POL(ocb---ccb-osb-Nat-csb(x_1)) = 0
POL(---osb-NatBag-csb-osb-NatBag-csb(x_1, x_2)) = 1 + x_2

 resulting in one new DP problem.




   R     ->DPs

       ->DP Problem 1
         ->Polo
       ->DP Problem 2
         ->Polo
       ->DP Problem 3
         ->Polo
       ->DP Problem 4
         ->Polo
       ->DP Problem 5
         ->Polynomial Ordering
       ->DP Problem 6
         ->Polo


Dependency Pair:
<=-OSB-NAT-CSB-OSB-NAT-CSB(s-osb-Nat-csb(N), s-osb-Nat-csb(M)) -> <=-OSB-NAT-CSB-OSB-NAT-CSB(N, M)
Rules:

   sub-bag-osb-NatBag-csb-osb-NatBag-csb(NB, NB) -> true
   sub-bag-osb-NatBag-csb-osb-NatBag-csb(NB, ---osb-NatBag-csb-osb-NatBag-csb(NB, NB')) -> true
   sub-bag-osb-NatBag-csb-osb-NatBag-csb(mtbag, NB') -> true
   -or--osb-Bool-csb-osb-Bool-csb(true, B) -> true
   -or--osb-Bool-csb-osb-Bool-csb(false, B) -> B
   good-state-osb-State-csb(-:-osb---csb-osb-Nat-csb-osb-Nat-csb-osb-ProcSet-csb(N, M, Ws)) -> true
   good-state-osb-State-csb(-:-osb---csb-osb-Nat-csb-osb-Nat-csb-osb-ProcSet-csb(N, M, ---osb-ProcSet-csb-osb-ProcSet-csb(crit-osb-Nat-csb(M'), ---osb-ProcSet-csb-osb-ProcSet-csb(crit-osb-Nat-csb(N'), Ps)))) -> false
   good-state-osb-State-csb(-:-osb---csb-osb-Nat-csb-osb-Nat-csb-osb-ProcSet-csb(N, M, ---osb-ProcSet-csb-osb-ProcSet-csb(crit-osb-Nat-csb(N'), crit-osb-Nat-csb(M')))) -> false
   good-state-osb-State-csb(-:-osb---csb-osb-Nat-csb-osb-Nat-csb-osb-ProcSet-csb(N, M, ---osb-ProcSet-csb-osb-ProcSet-csb(crit-osb-Nat-csb(M), Ws))) -> true
   good-state-osb-State-csb(-:-osb---csb-osb-Nat-csb-osb-Nat-csb-osb-ProcSet-csb(N, M, crit-osb-Nat-csb(M))) -> true
   tickets-osb-ProcSet-csb(wait-osb-Nat-csb(N)) -> ---osb-NatBag-csb-osb-NatBag-csb(ocb---ccb-osb-Nat-csb(N), tickets-osb-ProcSet-csb(none))
   tickets-osb-ProcSet-csb(crit-osb-Nat-csb(N)) -> ---osb-NatBag-csb-osb-NatBag-csb(ocb---ccb-osb-Nat-csb(N), tickets-osb-ProcSet-csb(none))
   tickets-osb-ProcSet-csb(---osb-ProcSet-csb-osb-ProcSet-csb(idle, Ps)) -> tickets-osb-ProcSet-csb(Ps)
   tickets-osb-ProcSet-csb(---osb-ProcSet-csb-osb-ProcSet-csb(wait-osb-Nat-csb(N), Ps)) -> ---osb-NatBag-csb-osb-NatBag-csb(ocb---ccb-osb-Nat-csb(N), tickets-osb-ProcSet-csb(Ps))
   tickets-osb-ProcSet-csb(idle) -> tickets-osb-ProcSet-csb(none)
   tickets-osb-ProcSet-csb(---osb-ProcSet-csb-osb-ProcSet-csb(crit-osb-Nat-csb(N), Ps)) -> ---osb-NatBag-csb-osb-NatBag-csb(ocb---ccb-osb-Nat-csb(N), tickets-osb-ProcSet-csb(Ps))
   tickets-osb-ProcSet-csb(Is) -> mtbag
   ---osb-NatBag-csb-osb-NatBag-csb(mtbag, X) -> X
   =-osb-Nat-csb-osb-Nat-csb(0, 0) -> true
   =-osb-Nat-csb-osb-Nat-csb(N, N) -> true
   =-osb-Nat-csb-osb-Nat-csb(s-osb-Nat-csb(N), s-osb-Nat-csb(N')) -> =-osb-Nat-csb-osb-Nat-csb(N, N')
   =-osb-Nat-csb-osb-Nat-csb(0, s-osb-Nat-csb(N)) -> false
   =-osb-Nat-csb-osb-Nat-csb(s-osb-Nat-csb(N), 0) -> false
   bounded-tickets-osb-State-csb(-:-osb---csb-osb-Nat-csb-osb-Nat-csb-osb-ProcSet-csb(N, M, Ps)) -> sub-bag-osb-NatBag-csb-osb-NatBag-csb(tickets-osb-ProcSet-csb(Ps), tickets-below-osb-Nat-csb(N))
   tickets-below-osb-Nat-csb(s-osb-Nat-csb(N)) -> ---osb-NatBag-csb-osb-NatBag-csb(ocb---ccb-osb-Nat-csb(N), tickets-below-osb-Nat-csb(N))
   tickets-below-osb-Nat-csb(0) -> mtbag
   mutex-osb-State-csb(-:-osb---csb-osb-Nat-csb-osb-Nat-csb-osb-ProcSet-csb(N, M, ---osb-ProcSet-csb-osb-ProcSet-csb(crit-osb-Nat-csb(M'), ---osb-ProcSet-csb-osb-ProcSet-csb(crit-osb-Nat-csb(N'), Ps)))) -> false
   mutex-osb-State-csb(-:-osb---csb-osb-Nat-csb-osb-Nat-csb-osb-ProcSet-csb(N, M, Ws)) -> true
   mutex-osb-State-csb(-:-osb---csb-osb-Nat-csb-osb-Nat-csb-osb-ProcSet-csb(N, M, ---osb-ProcSet-csb-osb-ProcSet-csb(crit-osb-Nat-csb(M'), Ws))) -> true
   mutex-osb-State-csb(-:-osb---csb-osb-Nat-csb-osb-Nat-csb-osb-ProcSet-csb(N, M, crit-osb-Nat-csb(M'))) -> true
   mutex-osb-State-csb(-:-osb---csb-osb-Nat-csb-osb-Nat-csb-osb-ProcSet-csb(N, M, ---osb-ProcSet-csb-osb-ProcSet-csb(crit-osb-Nat-csb(N'), crit-osb-Nat-csb(M')))) -> false
   ---osb-ProcSet-csb-osb-ProcSet-csb(none, X) -> X
   in?-osb-Nat-csb-osb-NatBag-csb(N, ---osb-NatBag-csb-osb-NatBag-csb(ocb---ccb-osb-Nat-csb(M), NB)) -> -or--osb-Bool-csb-osb-Bool-csb(=-osb-Nat-csb-osb-Nat-csb(N, M), in?-osb-Nat-csb-osb-NatBag-csb(N, NB))
   in?-osb-Nat-csb-osb-NatBag-csb(N, ocb---ccb-osb-Nat-csb(M)) -> -or--osb-Bool-csb-osb-Bool-csb(=-osb-Nat-csb-osb-Nat-csb(N, M), in?-osb-Nat-csb-osb-NatBag-csb(N, mtbag))
   in?-osb-Nat-csb-osb-NatBag-csb(N, mtbag) -> false
   <=-osb-Nat-csb-osb-Nat-csb(s-osb-Nat-csb(N), 0) -> false
   <=-osb-Nat-csb-osb-Nat-csb(0, N) -> true
   <=-osb-Nat-csb-osb-Nat-csb(N, N) -> true
   <=-osb-Nat-csb-osb-Nat-csb(s-osb-Nat-csb(N), s-osb-Nat-csb(M)) -> <=-osb-Nat-csb-osb-Nat-csb(N, M)
   set?-osb-NatBag-csb(mtbag) -> true
   set?-osb-NatBag-csb(---osb-NatBag-csb-osb-NatBag-csb(ocb---ccb-osb-Nat-csb(N), NB)) -> -and--osb-Bool-csb-osb-Bool-csb(not--osb-Bool-csb(in?-osb-Nat-csb-osb-NatBag-csb(N, NB)), set?-osb-NatBag-csb(NB))
   set?-osb-NatBag-csb(---osb-NatBag-csb-osb-NatBag-csb(ocb---ccb-osb-Nat-csb(N), ---osb-NatBag-csb-osb-NatBag-csb(ocb---ccb-osb-Nat-csb(N), NB))) -> false
   set?-osb-NatBag-csb(ocb---ccb-osb-Nat-csb(N)) -> -and--osb-Bool-csb-osb-Bool-csb(not--osb-Bool-csb(in?-osb-Nat-csb-osb-NatBag-csb(N, mtbag)), set?-osb-NatBag-csb(mtbag))
   set?-osb-NatBag-csb(---osb-NatBag-csb-osb-NatBag-csb(ocb---ccb-osb-Nat-csb(N), ocb---ccb-osb-Nat-csb(N))) -> false
   -and--osb-Bool-csb-osb-Bool-csb(true, B) -> B
   -and--osb-Bool-csb-osb-Bool-csb(false, B) -> false
   not--osb-Bool-csb(true) -> false
   not--osb-Bool-csb(false) -> true
   unique-tickets-osb-State-csb(-:-osb---csb-osb-Nat-csb-osb-Nat-csb-osb-ProcSet-csb(N, M, Ps)) -> set?-osb-NatBag-csb(tickets-osb-ProcSet-csb(Ps))
   init-osb-State-csb(-:-osb---csb-osb-Nat-csb-osb-Nat-csb-osb-ProcSet-csb(0, 0, Is)) -> true




The following dependency pair can be strictly oriented:


   <=-OSB-NAT-CSB-OSB-NAT-CSB(s-osb-Nat-csb(N), s-osb-Nat-csb(M)) -> <=-OSB-NAT-CSB-OSB-NAT-CSB(N, M)


There are no usable rules w.r.t. to the implicit AFS that need to be oriented.


Used ordering: Polynomial ordering with Polynomial interpretation:
POL(s-osb-Nat-csb(x_1)) = 1 + x_1
POL(<=-OSB-NAT-CSB-OSB-NAT-CSB(x_1, x_2)) = 1 + x_1

 resulting in one new DP problem.




   R     ->DPs

       ->DP Problem 1
         ->Polo
       ->DP Problem 2
         ->Polo
       ->DP Problem 3
         ->Polo
       ->DP Problem 4
         ->Polo
       ->DP Problem 5
         ->Polo
       ->DP Problem 6
         ->Polynomial Ordering


Dependency Pair:
SET?-OSB-NATBAG-CSB(---osb-NatBag-csb-osb-NatBag-csb(ocb---ccb-osb-Nat-csb(N), NB)) -> SET?-OSB-NATBAG-CSB(NB)
Rules:

   sub-bag-osb-NatBag-csb-osb-NatBag-csb(NB, NB) -> true
   sub-bag-osb-NatBag-csb-osb-NatBag-csb(NB, ---osb-NatBag-csb-osb-NatBag-csb(NB, NB')) -> true
   sub-bag-osb-NatBag-csb-osb-NatBag-csb(mtbag, NB') -> true
   -or--osb-Bool-csb-osb-Bool-csb(true, B) -> true
   -or--osb-Bool-csb-osb-Bool-csb(false, B) -> B
   good-state-osb-State-csb(-:-osb---csb-osb-Nat-csb-osb-Nat-csb-osb-ProcSet-csb(N, M, Ws)) -> true
   good-state-osb-State-csb(-:-osb---csb-osb-Nat-csb-osb-Nat-csb-osb-ProcSet-csb(N, M, ---osb-ProcSet-csb-osb-ProcSet-csb(crit-osb-Nat-csb(M'), ---osb-ProcSet-csb-osb-ProcSet-csb(crit-osb-Nat-csb(N'), Ps)))) -> false
   good-state-osb-State-csb(-:-osb---csb-osb-Nat-csb-osb-Nat-csb-osb-ProcSet-csb(N, M, ---osb-ProcSet-csb-osb-ProcSet-csb(crit-osb-Nat-csb(N'), crit-osb-Nat-csb(M')))) -> false
   good-state-osb-State-csb(-:-osb---csb-osb-Nat-csb-osb-Nat-csb-osb-ProcSet-csb(N, M, ---osb-ProcSet-csb-osb-ProcSet-csb(crit-osb-Nat-csb(M), Ws))) -> true
   good-state-osb-State-csb(-:-osb---csb-osb-Nat-csb-osb-Nat-csb-osb-ProcSet-csb(N, M, crit-osb-Nat-csb(M))) -> true
   tickets-osb-ProcSet-csb(wait-osb-Nat-csb(N)) -> ---osb-NatBag-csb-osb-NatBag-csb(ocb---ccb-osb-Nat-csb(N), tickets-osb-ProcSet-csb(none))
   tickets-osb-ProcSet-csb(crit-osb-Nat-csb(N)) -> ---osb-NatBag-csb-osb-NatBag-csb(ocb---ccb-osb-Nat-csb(N), tickets-osb-ProcSet-csb(none))
   tickets-osb-ProcSet-csb(---osb-ProcSet-csb-osb-ProcSet-csb(idle, Ps)) -> tickets-osb-ProcSet-csb(Ps)
   tickets-osb-ProcSet-csb(---osb-ProcSet-csb-osb-ProcSet-csb(wait-osb-Nat-csb(N), Ps)) -> ---osb-NatBag-csb-osb-NatBag-csb(ocb---ccb-osb-Nat-csb(N), tickets-osb-ProcSet-csb(Ps))
   tickets-osb-ProcSet-csb(idle) -> tickets-osb-ProcSet-csb(none)
   tickets-osb-ProcSet-csb(---osb-ProcSet-csb-osb-ProcSet-csb(crit-osb-Nat-csb(N), Ps)) -> ---osb-NatBag-csb-osb-NatBag-csb(ocb---ccb-osb-Nat-csb(N), tickets-osb-ProcSet-csb(Ps))
   tickets-osb-ProcSet-csb(Is) -> mtbag
   ---osb-NatBag-csb-osb-NatBag-csb(mtbag, X) -> X
   =-osb-Nat-csb-osb-Nat-csb(0, 0) -> true
   =-osb-Nat-csb-osb-Nat-csb(N, N) -> true
   =-osb-Nat-csb-osb-Nat-csb(s-osb-Nat-csb(N), s-osb-Nat-csb(N')) -> =-osb-Nat-csb-osb-Nat-csb(N, N')
   =-osb-Nat-csb-osb-Nat-csb(0, s-osb-Nat-csb(N)) -> false
   =-osb-Nat-csb-osb-Nat-csb(s-osb-Nat-csb(N), 0) -> false
   bounded-tickets-osb-State-csb(-:-osb---csb-osb-Nat-csb-osb-Nat-csb-osb-ProcSet-csb(N, M, Ps)) -> sub-bag-osb-NatBag-csb-osb-NatBag-csb(tickets-osb-ProcSet-csb(Ps), tickets-below-osb-Nat-csb(N))
   tickets-below-osb-Nat-csb(s-osb-Nat-csb(N)) -> ---osb-NatBag-csb-osb-NatBag-csb(ocb---ccb-osb-Nat-csb(N), tickets-below-osb-Nat-csb(N))
   tickets-below-osb-Nat-csb(0) -> mtbag
   mutex-osb-State-csb(-:-osb---csb-osb-Nat-csb-osb-Nat-csb-osb-ProcSet-csb(N, M, ---osb-ProcSet-csb-osb-ProcSet-csb(crit-osb-Nat-csb(M'), ---osb-ProcSet-csb-osb-ProcSet-csb(crit-osb-Nat-csb(N'), Ps)))) -> false
   mutex-osb-State-csb(-:-osb---csb-osb-Nat-csb-osb-Nat-csb-osb-ProcSet-csb(N, M, Ws)) -> true
   mutex-osb-State-csb(-:-osb---csb-osb-Nat-csb-osb-Nat-csb-osb-ProcSet-csb(N, M, ---osb-ProcSet-csb-osb-ProcSet-csb(crit-osb-Nat-csb(M'), Ws))) -> true
   mutex-osb-State-csb(-:-osb---csb-osb-Nat-csb-osb-Nat-csb-osb-ProcSet-csb(N, M, crit-osb-Nat-csb(M'))) -> true
   mutex-osb-State-csb(-:-osb---csb-osb-Nat-csb-osb-Nat-csb-osb-ProcSet-csb(N, M, ---osb-ProcSet-csb-osb-ProcSet-csb(crit-osb-Nat-csb(N'), crit-osb-Nat-csb(M')))) -> false
   ---osb-ProcSet-csb-osb-ProcSet-csb(none, X) -> X
   in?-osb-Nat-csb-osb-NatBag-csb(N, ---osb-NatBag-csb-osb-NatBag-csb(ocb---ccb-osb-Nat-csb(M), NB)) -> -or--osb-Bool-csb-osb-Bool-csb(=-osb-Nat-csb-osb-Nat-csb(N, M), in?-osb-Nat-csb-osb-NatBag-csb(N, NB))
   in?-osb-Nat-csb-osb-NatBag-csb(N, ocb---ccb-osb-Nat-csb(M)) -> -or--osb-Bool-csb-osb-Bool-csb(=-osb-Nat-csb-osb-Nat-csb(N, M), in?-osb-Nat-csb-osb-NatBag-csb(N, mtbag))
   in?-osb-Nat-csb-osb-NatBag-csb(N, mtbag) -> false
   <=-osb-Nat-csb-osb-Nat-csb(s-osb-Nat-csb(N), 0) -> false
   <=-osb-Nat-csb-osb-Nat-csb(0, N) -> true
   <=-osb-Nat-csb-osb-Nat-csb(N, N) -> true
   <=-osb-Nat-csb-osb-Nat-csb(s-osb-Nat-csb(N), s-osb-Nat-csb(M)) -> <=-osb-Nat-csb-osb-Nat-csb(N, M)
   set?-osb-NatBag-csb(mtbag) -> true
   set?-osb-NatBag-csb(---osb-NatBag-csb-osb-NatBag-csb(ocb---ccb-osb-Nat-csb(N), NB)) -> -and--osb-Bool-csb-osb-Bool-csb(not--osb-Bool-csb(in?-osb-Nat-csb-osb-NatBag-csb(N, NB)), set?-osb-NatBag-csb(NB))
   set?-osb-NatBag-csb(---osb-NatBag-csb-osb-NatBag-csb(ocb---ccb-osb-Nat-csb(N), ---osb-NatBag-csb-osb-NatBag-csb(ocb---ccb-osb-Nat-csb(N), NB))) -> false
   set?-osb-NatBag-csb(ocb---ccb-osb-Nat-csb(N)) -> -and--osb-Bool-csb-osb-Bool-csb(not--osb-Bool-csb(in?-osb-Nat-csb-osb-NatBag-csb(N, mtbag)), set?-osb-NatBag-csb(mtbag))
   set?-osb-NatBag-csb(---osb-NatBag-csb-osb-NatBag-csb(ocb---ccb-osb-Nat-csb(N), ocb---ccb-osb-Nat-csb(N))) -> false
   -and--osb-Bool-csb-osb-Bool-csb(true, B) -> B
   -and--osb-Bool-csb-osb-Bool-csb(false, B) -> false
   not--osb-Bool-csb(true) -> false
   not--osb-Bool-csb(false) -> true
   unique-tickets-osb-State-csb(-:-osb---csb-osb-Nat-csb-osb-Nat-csb-osb-ProcSet-csb(N, M, Ps)) -> set?-osb-NatBag-csb(tickets-osb-ProcSet-csb(Ps))
   init-osb-State-csb(-:-osb---csb-osb-Nat-csb-osb-Nat-csb-osb-ProcSet-csb(0, 0, Is)) -> true




The following dependency pair can be strictly oriented:


   SET?-OSB-NATBAG-CSB(---osb-NatBag-csb-osb-NatBag-csb(ocb---ccb-osb-Nat-csb(N), NB)) -> SET?-OSB-NATBAG-CSB(NB)


There are no usable rules w.r.t. to the implicit AFS that need to be oriented.


Used ordering: Polynomial ordering with Polynomial interpretation:
POL(SET?-OSB-NATBAG-CSB(x_1)) = x_1
POL(ocb---ccb-osb-Nat-csb(x_1)) = 0
POL(---osb-NatBag-csb-osb-NatBag-csb(x_1, x_2)) = 1 + x_2

 resulting in one new DP problem.



Termination of R successfully shown.

Duration: 
10:31 minutes


